(kicad_sch (version 20230121) (generator eeschema)

  (uuid 1d5a162f-b01d-4a7a-9227-d38d60ff93c2)

  (paper "A4")

  (lib_symbols
    (symbol "Connector:Conn_01x02_Pin" (pin_names (offset 1.016) hide) (in_bom yes) (on_board yes)
      (property "Reference" "J" (at 0 2.54 0)
        (effects (font (size 1.27 1.27)))
      )
      (property "Value" "Conn_01x02_Pin" (at 0 -5.08 0)
        (effects (font (size 1.27 1.27)))
      )
      (property "Footprint" "" (at 0 0 0)
        (effects (font (size 1.27 1.27)) hide)
      )
      (property "Datasheet" "~" (at 0 0 0)
        (effects (font (size 1.27 1.27)) hide)
      )
      (property "ki_locked" "" (at 0 0 0)
        (effects (font (size 1.27 1.27)))
      )
      (property "ki_keywords" "connector" (at 0 0 0)
        (effects (font (size 1.27 1.27)) hide)
      )
      (property "ki_description" "Generic connector, single row, 01x02, script generated" (at 0 0 0)
        (effects (font (size 1.27 1.27)) hide)
      )
      (property "ki_fp_filters" "Connector*:*_1x??_*" (at 0 0 0)
        (effects (font (size 1.27 1.27)) hide)
      )
      (symbol "Conn_01x02_Pin_1_1"
        (polyline
          (pts
            (xy 1.27 -2.54)
            (xy 0.8636 -2.54)
          )
          (stroke (width 0.1524) (type default))
          (fill (type none))
        )
        (polyline
          (pts
            (xy 1.27 0)
            (xy 0.8636 0)
          )
          (stroke (width 0.1524) (type default))
          (fill (type none))
        )
        (rectangle (start 0.8636 -2.413) (end 0 -2.667)
          (stroke (width 0.1524) (type default))
          (fill (type outline))
        )
        (rectangle (start 0.8636 0.127) (end 0 -0.127)
          (stroke (width 0.1524) (type default))
          (fill (type outline))
        )
        (pin passive line (at 5.08 0 180) (length 3.81)
          (name "Pin_1" (effects (font (size 1.27 1.27))))
          (number "1" (effects (font (size 1.27 1.27))))
        )
        (pin passive line (at 5.08 -2.54 180) (length 3.81)
          (name "Pin_2" (effects (font (size 1.27 1.27))))
          (number "2" (effects (font (size 1.27 1.27))))
        )
      )
    )
    (symbol "Connector:USB_C_Receptacle_USB2.0" (pin_names (offset 1.016)) (in_bom yes) (on_board yes)
      (property "Reference" "J" (at -10.16 19.05 0)
        (effects (font (size 1.27 1.27)) (justify left))
      )
      (property "Value" "USB_C_Receptacle_USB2.0" (at 19.05 19.05 0)
        (effects (font (size 1.27 1.27)) (justify right))
      )
      (property "Footprint" "" (at 3.81 0 0)
        (effects (font (size 1.27 1.27)) hide)
      )
      (property "Datasheet" "https://www.usb.org/sites/default/files/documents/usb_type-c.zip" (at 3.81 0 0)
        (effects (font (size 1.27 1.27)) hide)
      )
      (property "ki_keywords" "usb universal serial bus type-C USB2.0" (at 0 0 0)
        (effects (font (size 1.27 1.27)) hide)
      )
      (property "ki_description" "USB 2.0-only Type-C Receptacle connector" (at 0 0 0)
        (effects (font (size 1.27 1.27)) hide)
      )
      (property "ki_fp_filters" "USB*C*Receptacle*" (at 0 0 0)
        (effects (font (size 1.27 1.27)) hide)
      )
      (symbol "USB_C_Receptacle_USB2.0_0_0"
        (rectangle (start -0.254 -17.78) (end 0.254 -16.764)
          (stroke (width 0) (type default))
          (fill (type none))
        )
        (rectangle (start 10.16 -14.986) (end 9.144 -15.494)
          (stroke (width 0) (type default))
          (fill (type none))
        )
        (rectangle (start 10.16 -12.446) (end 9.144 -12.954)
          (stroke (width 0) (type default))
          (fill (type none))
        )
        (rectangle (start 10.16 -4.826) (end 9.144 -5.334)
          (stroke (width 0) (type default))
          (fill (type none))
        )
        (rectangle (start 10.16 -2.286) (end 9.144 -2.794)
          (stroke (width 0) (type default))
          (fill (type none))
        )
        (rectangle (start 10.16 0.254) (end 9.144 -0.254)
          (stroke (width 0) (type default))
          (fill (type none))
        )
        (rectangle (start 10.16 2.794) (end 9.144 2.286)
          (stroke (width 0) (type default))
          (fill (type none))
        )
        (rectangle (start 10.16 7.874) (end 9.144 7.366)
          (stroke (width 0) (type default))
          (fill (type none))
        )
        (rectangle (start 10.16 10.414) (end 9.144 9.906)
          (stroke (width 0) (type default))
          (fill (type none))
        )
        (rectangle (start 10.16 15.494) (end 9.144 14.986)
          (stroke (width 0) (type default))
          (fill (type none))
        )
      )
      (symbol "USB_C_Receptacle_USB2.0_0_1"
        (rectangle (start -10.16 17.78) (end 10.16 -17.78)
          (stroke (width 0.254) (type default))
          (fill (type background))
        )
        (arc (start -8.89 -3.81) (mid -6.985 -5.7067) (end -5.08 -3.81)
          (stroke (width 0.508) (type default))
          (fill (type none))
        )
        (arc (start -7.62 -3.81) (mid -6.985 -4.4423) (end -6.35 -3.81)
          (stroke (width 0.254) (type default))
          (fill (type none))
        )
        (arc (start -7.62 -3.81) (mid -6.985 -4.4423) (end -6.35 -3.81)
          (stroke (width 0.254) (type default))
          (fill (type outline))
        )
        (rectangle (start -7.62 -3.81) (end -6.35 3.81)
          (stroke (width 0.254) (type default))
          (fill (type outline))
        )
        (arc (start -6.35 3.81) (mid -6.985 4.4423) (end -7.62 3.81)
          (stroke (width 0.254) (type default))
          (fill (type none))
        )
        (arc (start -6.35 3.81) (mid -6.985 4.4423) (end -7.62 3.81)
          (stroke (width 0.254) (type default))
          (fill (type outline))
        )
        (arc (start -5.08 3.81) (mid -6.985 5.7067) (end -8.89 3.81)
          (stroke (width 0.508) (type default))
          (fill (type none))
        )
        (circle (center -2.54 1.143) (radius 0.635)
          (stroke (width 0.254) (type default))
          (fill (type outline))
        )
        (circle (center 0 -5.842) (radius 1.27)
          (stroke (width 0) (type default))
          (fill (type outline))
        )
        (polyline
          (pts
            (xy -8.89 -3.81)
            (xy -8.89 3.81)
          )
          (stroke (width 0.508) (type default))
          (fill (type none))
        )
        (polyline
          (pts
            (xy -5.08 3.81)
            (xy -5.08 -3.81)
          )
          (stroke (width 0.508) (type default))
          (fill (type none))
        )
        (polyline
          (pts
            (xy 0 -5.842)
            (xy 0 4.318)
          )
          (stroke (width 0.508) (type default))
          (fill (type none))
        )
        (polyline
          (pts
            (xy 0 -3.302)
            (xy -2.54 -0.762)
            (xy -2.54 0.508)
          )
          (stroke (width 0.508) (type default))
          (fill (type none))
        )
        (polyline
          (pts
            (xy 0 -2.032)
            (xy 2.54 0.508)
            (xy 2.54 1.778)
          )
          (stroke (width 0.508) (type default))
          (fill (type none))
        )
        (polyline
          (pts
            (xy -1.27 4.318)
            (xy 0 6.858)
            (xy 1.27 4.318)
            (xy -1.27 4.318)
          )
          (stroke (width 0.254) (type default))
          (fill (type outline))
        )
        (rectangle (start 1.905 1.778) (end 3.175 3.048)
          (stroke (width 0.254) (type default))
          (fill (type outline))
        )
      )
      (symbol "USB_C_Receptacle_USB2.0_1_1"
        (pin passive line (at 0 -22.86 90) (length 5.08)
          (name "GND" (effects (font (size 1.27 1.27))))
          (number "A1" (effects (font (size 1.27 1.27))))
        )
        (pin passive line (at 0 -22.86 90) (length 5.08) hide
          (name "GND" (effects (font (size 1.27 1.27))))
          (number "A12" (effects (font (size 1.27 1.27))))
        )
        (pin passive line (at 15.24 15.24 180) (length 5.08)
          (name "VBUS" (effects (font (size 1.27 1.27))))
          (number "A4" (effects (font (size 1.27 1.27))))
        )
        (pin bidirectional line (at 15.24 10.16 180) (length 5.08)
          (name "CC1" (effects (font (size 1.27 1.27))))
          (number "A5" (effects (font (size 1.27 1.27))))
        )
        (pin bidirectional line (at 15.24 -2.54 180) (length 5.08)
          (name "D+" (effects (font (size 1.27 1.27))))
          (number "A6" (effects (font (size 1.27 1.27))))
        )
        (pin bidirectional line (at 15.24 2.54 180) (length 5.08)
          (name "D-" (effects (font (size 1.27 1.27))))
          (number "A7" (effects (font (size 1.27 1.27))))
        )
        (pin bidirectional line (at 15.24 -12.7 180) (length 5.08)
          (name "SBU1" (effects (font (size 1.27 1.27))))
          (number "A8" (effects (font (size 1.27 1.27))))
        )
        (pin passive line (at 15.24 15.24 180) (length 5.08) hide
          (name "VBUS" (effects (font (size 1.27 1.27))))
          (number "A9" (effects (font (size 1.27 1.27))))
        )
        (pin passive line (at 0 -22.86 90) (length 5.08) hide
          (name "GND" (effects (font (size 1.27 1.27))))
          (number "B1" (effects (font (size 1.27 1.27))))
        )
        (pin passive line (at 0 -22.86 90) (length 5.08) hide
          (name "GND" (effects (font (size 1.27 1.27))))
          (number "B12" (effects (font (size 1.27 1.27))))
        )
        (pin passive line (at 15.24 15.24 180) (length 5.08) hide
          (name "VBUS" (effects (font (size 1.27 1.27))))
          (number "B4" (effects (font (size 1.27 1.27))))
        )
        (pin bidirectional line (at 15.24 7.62 180) (length 5.08)
          (name "CC2" (effects (font (size 1.27 1.27))))
          (number "B5" (effects (font (size 1.27 1.27))))
        )
        (pin bidirectional line (at 15.24 -5.08 180) (length 5.08)
          (name "D+" (effects (font (size 1.27 1.27))))
          (number "B6" (effects (font (size 1.27 1.27))))
        )
        (pin bidirectional line (at 15.24 0 180) (length 5.08)
          (name "D-" (effects (font (size 1.27 1.27))))
          (number "B7" (effects (font (size 1.27 1.27))))
        )
        (pin bidirectional line (at 15.24 -15.24 180) (length 5.08)
          (name "SBU2" (effects (font (size 1.27 1.27))))
          (number "B8" (effects (font (size 1.27 1.27))))
        )
        (pin passive line (at 15.24 15.24 180) (length 5.08) hide
          (name "VBUS" (effects (font (size 1.27 1.27))))
          (number "B9" (effects (font (size 1.27 1.27))))
        )
        (pin passive line (at -7.62 -22.86 90) (length 5.08)
          (name "SHIELD" (effects (font (size 1.27 1.27))))
          (number "S1" (effects (font (size 1.27 1.27))))
        )
      )
    )
    (symbol "Connector_Generic:Conn_02x05_Odd_Even" (pin_names (offset 1.016) hide) (in_bom yes) (on_board yes)
      (property "Reference" "J" (at 1.27 7.62 0)
        (effects (font (size 1.27 1.27)))
      )
      (property "Value" "Conn_02x05_Odd_Even" (at 1.27 -7.62 0)
        (effects (font (size 1.27 1.27)))
      )
      (property "Footprint" "" (at 0 0 0)
        (effects (font (size 1.27 1.27)) hide)
      )
      (property "Datasheet" "~" (at 0 0 0)
        (effects (font (size 1.27 1.27)) hide)
      )
      (property "ki_keywords" "connector" (at 0 0 0)
        (effects (font (size 1.27 1.27)) hide)
      )
      (property "ki_description" "Generic connector, double row, 02x05, odd/even pin numbering scheme (row 1 odd numbers, row 2 even numbers), script generated (kicad-library-utils/schlib/autogen/connector/)" (at 0 0 0)
        (effects (font (size 1.27 1.27)) hide)
      )
      (property "ki_fp_filters" "Connector*:*_2x??_*" (at 0 0 0)
        (effects (font (size 1.27 1.27)) hide)
      )
      (symbol "Conn_02x05_Odd_Even_1_1"
        (rectangle (start -1.27 -4.953) (end 0 -5.207)
          (stroke (width 0.1524) (type default))
          (fill (type none))
        )
        (rectangle (start -1.27 -2.413) (end 0 -2.667)
          (stroke (width 0.1524) (type default))
          (fill (type none))
        )
        (rectangle (start -1.27 0.127) (end 0 -0.127)
          (stroke (width 0.1524) (type default))
          (fill (type none))
        )
        (rectangle (start -1.27 2.667) (end 0 2.413)
          (stroke (width 0.1524) (type default))
          (fill (type none))
        )
        (rectangle (start -1.27 5.207) (end 0 4.953)
          (stroke (width 0.1524) (type default))
          (fill (type none))
        )
        (rectangle (start -1.27 6.35) (end 3.81 -6.35)
          (stroke (width 0.254) (type default))
          (fill (type background))
        )
        (rectangle (start 3.81 -4.953) (end 2.54 -5.207)
          (stroke (width 0.1524) (type default))
          (fill (type none))
        )
        (rectangle (start 3.81 -2.413) (end 2.54 -2.667)
          (stroke (width 0.1524) (type default))
          (fill (type none))
        )
        (rectangle (start 3.81 0.127) (end 2.54 -0.127)
          (stroke (width 0.1524) (type default))
          (fill (type none))
        )
        (rectangle (start 3.81 2.667) (end 2.54 2.413)
          (stroke (width 0.1524) (type default))
          (fill (type none))
        )
        (rectangle (start 3.81 5.207) (end 2.54 4.953)
          (stroke (width 0.1524) (type default))
          (fill (type none))
        )
        (pin passive line (at -5.08 5.08 0) (length 3.81)
          (name "Pin_1" (effects (font (size 1.27 1.27))))
          (number "1" (effects (font (size 1.27 1.27))))
        )
        (pin passive line (at 7.62 -5.08 180) (length 3.81)
          (name "Pin_10" (effects (font (size 1.27 1.27))))
          (number "10" (effects (font (size 1.27 1.27))))
        )
        (pin passive line (at 7.62 5.08 180) (length 3.81)
          (name "Pin_2" (effects (font (size 1.27 1.27))))
          (number "2" (effects (font (size 1.27 1.27))))
        )
        (pin passive line (at -5.08 2.54 0) (length 3.81)
          (name "Pin_3" (effects (font (size 1.27 1.27))))
          (number "3" (effects (font (size 1.27 1.27))))
        )
        (pin passive line (at 7.62 2.54 180) (length 3.81)
          (name "Pin_4" (effects (font (size 1.27 1.27))))
          (number "4" (effects (font (size 1.27 1.27))))
        )
        (pin passive line (at -5.08 0 0) (length 3.81)
          (name "Pin_5" (effects (font (size 1.27 1.27))))
          (number "5" (effects (font (size 1.27 1.27))))
        )
        (pin passive line (at 7.62 0 180) (length 3.81)
          (name "Pin_6" (effects (font (size 1.27 1.27))))
          (number "6" (effects (font (size 1.27 1.27))))
        )
        (pin passive line (at -5.08 -2.54 0) (length 3.81)
          (name "Pin_7" (effects (font (size 1.27 1.27))))
          (number "7" (effects (font (size 1.27 1.27))))
        )
        (pin passive line (at 7.62 -2.54 180) (length 3.81)
          (name "Pin_8" (effects (font (size 1.27 1.27))))
          (number "8" (effects (font (size 1.27 1.27))))
        )
        (pin passive line (at -5.08 -5.08 0) (length 3.81)
          (name "Pin_9" (effects (font (size 1.27 1.27))))
          (number "9" (effects (font (size 1.27 1.27))))
        )
      )
    )
    (symbol "Device:C" (pin_numbers hide) (pin_names (offset 0.254)) (in_bom yes) (on_board yes)
      (property "Reference" "C" (at 0.635 2.54 0)
        (effects (font (size 1.27 1.27)) (justify left))
      )
      (property "Value" "C" (at 0.635 -2.54 0)
        (effects (font (size 1.27 1.27)) (justify left))
      )
      (property "Footprint" "" (at 0.9652 -3.81 0)
        (effects (font (size 1.27 1.27)) hide)
      )
      (property "Datasheet" "~" (at 0 0 0)
        (effects (font (size 1.27 1.27)) hide)
      )
      (property "ki_keywords" "cap capacitor" (at 0 0 0)
        (effects (font (size 1.27 1.27)) hide)
      )
      (property "ki_description" "Unpolarized capacitor" (at 0 0 0)
        (effects (font (size 1.27 1.27)) hide)
      )
      (property "ki_fp_filters" "C_*" (at 0 0 0)
        (effects (font (size 1.27 1.27)) hide)
      )
      (symbol "C_0_1"
        (polyline
          (pts
            (xy -2.032 -0.762)
            (xy 2.032 -0.762)
          )
          (stroke (width 0.508) (type default))
          (fill (type none))
        )
        (polyline
          (pts
            (xy -2.032 0.762)
            (xy 2.032 0.762)
          )
          (stroke (width 0.508) (type default))
          (fill (type none))
        )
      )
      (symbol "C_1_1"
        (pin passive line (at 0 3.81 270) (length 2.794)
          (name "~" (effects (font (size 1.27 1.27))))
          (number "1" (effects (font (size 1.27 1.27))))
        )
        (pin passive line (at 0 -3.81 90) (length 2.794)
          (name "~" (effects (font (size 1.27 1.27))))
          (number "2" (effects (font (size 1.27 1.27))))
        )
      )
    )
    (symbol "Device:C_Polarized" (pin_numbers hide) (pin_names (offset 0.254)) (in_bom yes) (on_board yes)
      (property "Reference" "C" (at 0.635 2.54 0)
        (effects (font (size 1.27 1.27)) (justify left))
      )
      (property "Value" "C_Polarized" (at 0.635 -2.54 0)
        (effects (font (size 1.27 1.27)) (justify left))
      )
      (property "Footprint" "" (at 0.9652 -3.81 0)
        (effects (font (size 1.27 1.27)) hide)
      )
      (property "Datasheet" "~" (at 0 0 0)
        (effects (font (size 1.27 1.27)) hide)
      )
      (property "ki_keywords" "cap capacitor" (at 0 0 0)
        (effects (font (size 1.27 1.27)) hide)
      )
      (property "ki_description" "Polarized capacitor" (at 0 0 0)
        (effects (font (size 1.27 1.27)) hide)
      )
      (property "ki_fp_filters" "CP_*" (at 0 0 0)
        (effects (font (size 1.27 1.27)) hide)
      )
      (symbol "C_Polarized_0_1"
        (rectangle (start -2.286 0.508) (end 2.286 1.016)
          (stroke (width 0) (type default))
          (fill (type none))
        )
        (polyline
          (pts
            (xy -1.778 2.286)
            (xy -0.762 2.286)
          )
          (stroke (width 0) (type default))
          (fill (type none))
        )
        (polyline
          (pts
            (xy -1.27 2.794)
            (xy -1.27 1.778)
          )
          (stroke (width 0) (type default))
          (fill (type none))
        )
        (rectangle (start 2.286 -0.508) (end -2.286 -1.016)
          (stroke (width 0) (type default))
          (fill (type outline))
        )
      )
      (symbol "C_Polarized_1_1"
        (pin passive line (at 0 3.81 270) (length 2.794)
          (name "~" (effects (font (size 1.27 1.27))))
          (number "1" (effects (font (size 1.27 1.27))))
        )
        (pin passive line (at 0 -3.81 90) (length 2.794)
          (name "~" (effects (font (size 1.27 1.27))))
          (number "2" (effects (font (size 1.27 1.27))))
        )
      )
    )
    (symbol "Device:Crystal" (pin_numbers hide) (pin_names (offset 1.016) hide) (in_bom yes) (on_board yes)
      (property "Reference" "Y" (at 0 3.81 0)
        (effects (font (size 1.27 1.27)))
      )
      (property "Value" "Crystal" (at 0 -3.81 0)
        (effects (font (size 1.27 1.27)))
      )
      (property "Footprint" "" (at 0 0 0)
        (effects (font (size 1.27 1.27)) hide)
      )
      (property "Datasheet" "~" (at 0 0 0)
        (effects (font (size 1.27 1.27)) hide)
      )
      (property "ki_keywords" "quartz ceramic resonator oscillator" (at 0 0 0)
        (effects (font (size 1.27 1.27)) hide)
      )
      (property "ki_description" "Two pin crystal" (at 0 0 0)
        (effects (font (size 1.27 1.27)) hide)
      )
      (property "ki_fp_filters" "Crystal*" (at 0 0 0)
        (effects (font (size 1.27 1.27)) hide)
      )
      (symbol "Crystal_0_1"
        (rectangle (start -1.143 2.54) (end 1.143 -2.54)
          (stroke (width 0.3048) (type default))
          (fill (type none))
        )
        (polyline
          (pts
            (xy -2.54 0)
            (xy -1.905 0)
          )
          (stroke (width 0) (type default))
          (fill (type none))
        )
        (polyline
          (pts
            (xy -1.905 -1.27)
            (xy -1.905 1.27)
          )
          (stroke (width 0.508) (type default))
          (fill (type none))
        )
        (polyline
          (pts
            (xy 1.905 -1.27)
            (xy 1.905 1.27)
          )
          (stroke (width 0.508) (type default))
          (fill (type none))
        )
        (polyline
          (pts
            (xy 2.54 0)
            (xy 1.905 0)
          )
          (stroke (width 0) (type default))
          (fill (type none))
        )
      )
      (symbol "Crystal_1_1"
        (pin passive line (at -3.81 0 0) (length 1.27)
          (name "1" (effects (font (size 1.27 1.27))))
          (number "1" (effects (font (size 1.27 1.27))))
        )
        (pin passive line (at 3.81 0 180) (length 1.27)
          (name "2" (effects (font (size 1.27 1.27))))
          (number "2" (effects (font (size 1.27 1.27))))
        )
      )
    )
    (symbol "Device:LED" (pin_numbers hide) (pin_names (offset 1.016) hide) (in_bom yes) (on_board yes)
      (property "Reference" "D" (at 0 2.54 0)
        (effects (font (size 1.27 1.27)))
      )
      (property "Value" "LED" (at 0 -2.54 0)
        (effects (font (size 1.27 1.27)))
      )
      (property "Footprint" "" (at 0 0 0)
        (effects (font (size 1.27 1.27)) hide)
      )
      (property "Datasheet" "~" (at 0 0 0)
        (effects (font (size 1.27 1.27)) hide)
      )
      (property "ki_keywords" "LED diode" (at 0 0 0)
        (effects (font (size 1.27 1.27)) hide)
      )
      (property "ki_description" "Light emitting diode" (at 0 0 0)
        (effects (font (size 1.27 1.27)) hide)
      )
      (property "ki_fp_filters" "LED* LED_SMD:* LED_THT:*" (at 0 0 0)
        (effects (font (size 1.27 1.27)) hide)
      )
      (symbol "LED_0_1"
        (polyline
          (pts
            (xy -1.27 -1.27)
            (xy -1.27 1.27)
          )
          (stroke (width 0.254) (type default))
          (fill (type none))
        )
        (polyline
          (pts
            (xy -1.27 0)
            (xy 1.27 0)
          )
          (stroke (width 0) (type default))
          (fill (type none))
        )
        (polyline
          (pts
            (xy 1.27 -1.27)
            (xy 1.27 1.27)
            (xy -1.27 0)
            (xy 1.27 -1.27)
          )
          (stroke (width 0.254) (type default))
          (fill (type none))
        )
        (polyline
          (pts
            (xy -3.048 -0.762)
            (xy -4.572 -2.286)
            (xy -3.81 -2.286)
            (xy -4.572 -2.286)
            (xy -4.572 -1.524)
          )
          (stroke (width 0) (type default))
          (fill (type none))
        )
        (polyline
          (pts
            (xy -1.778 -0.762)
            (xy -3.302 -2.286)
            (xy -2.54 -2.286)
            (xy -3.302 -2.286)
            (xy -3.302 -1.524)
          )
          (stroke (width 0) (type default))
          (fill (type none))
        )
      )
      (symbol "LED_1_1"
        (pin passive line (at -3.81 0 0) (length 2.54)
          (name "K" (effects (font (size 1.27 1.27))))
          (number "1" (effects (font (size 1.27 1.27))))
        )
        (pin passive line (at 3.81 0 180) (length 2.54)
          (name "A" (effects (font (size 1.27 1.27))))
          (number "2" (effects (font (size 1.27 1.27))))
        )
      )
    )
    (symbol "Device:R" (pin_numbers hide) (pin_names (offset 0)) (in_bom yes) (on_board yes)
      (property "Reference" "R" (at 2.032 0 90)
        (effects (font (size 1.27 1.27)))
      )
      (property "Value" "R" (at 0 0 90)
        (effects (font (size 1.27 1.27)))
      )
      (property "Footprint" "" (at -1.778 0 90)
        (effects (font (size 1.27 1.27)) hide)
      )
      (property "Datasheet" "~" (at 0 0 0)
        (effects (font (size 1.27 1.27)) hide)
      )
      (property "ki_keywords" "R res resistor" (at 0 0 0)
        (effects (font (size 1.27 1.27)) hide)
      )
      (property "ki_description" "Resistor" (at 0 0 0)
        (effects (font (size 1.27 1.27)) hide)
      )
      (property "ki_fp_filters" "R_*" (at 0 0 0)
        (effects (font (size 1.27 1.27)) hide)
      )
      (symbol "R_0_1"
        (rectangle (start -1.016 -2.54) (end 1.016 2.54)
          (stroke (width 0.254) (type default))
          (fill (type none))
        )
      )
      (symbol "R_1_1"
        (pin passive line (at 0 3.81 270) (length 1.27)
          (name "~" (effects (font (size 1.27 1.27))))
          (number "1" (effects (font (size 1.27 1.27))))
        )
        (pin passive line (at 0 -3.81 90) (length 1.27)
          (name "~" (effects (font (size 1.27 1.27))))
          (number "2" (effects (font (size 1.27 1.27))))
        )
      )
    )
    (symbol "Diode:BZV55B3V6" (pin_numbers hide) (pin_names hide) (in_bom yes) (on_board yes)
      (property "Reference" "D" (at 0 2.54 0)
        (effects (font (size 1.27 1.27)))
      )
      (property "Value" "BZV55B3V6" (at 0 -2.54 0)
        (effects (font (size 1.27 1.27)))
      )
      (property "Footprint" "Diode_SMD:D_MiniMELF" (at 0 -4.445 0)
        (effects (font (size 1.27 1.27)) hide)
      )
      (property "Datasheet" "https://assets.nexperia.com/documents/data-sheet/BZV55_SER.pdf" (at 0 0 0)
        (effects (font (size 1.27 1.27)) hide)
      )
      (property "ki_keywords" "zener diode" (at 0 0 0)
        (effects (font (size 1.27 1.27)) hide)
      )
      (property "ki_description" "3.6V, 500mW, 2%, Zener diode, MiniMELF" (at 0 0 0)
        (effects (font (size 1.27 1.27)) hide)
      )
      (property "ki_fp_filters" "D*MiniMELF*" (at 0 0 0)
        (effects (font (size 1.27 1.27)) hide)
      )
      (symbol "BZV55B3V6_0_1"
        (polyline
          (pts
            (xy 1.27 0)
            (xy -1.27 0)
          )
          (stroke (width 0) (type default))
          (fill (type none))
        )
        (polyline
          (pts
            (xy -1.27 -1.27)
            (xy -1.27 1.27)
            (xy -0.762 1.27)
          )
          (stroke (width 0.254) (type default))
          (fill (type none))
        )
        (polyline
          (pts
            (xy 1.27 -1.27)
            (xy 1.27 1.27)
            (xy -1.27 0)
            (xy 1.27 -1.27)
          )
          (stroke (width 0.254) (type default))
          (fill (type none))
        )
      )
      (symbol "BZV55B3V6_1_1"
        (pin passive line (at -3.81 0 0) (length 2.54)
          (name "K" (effects (font (size 1.27 1.27))))
          (number "1" (effects (font (size 1.27 1.27))))
        )
        (pin passive line (at 3.81 0 180) (length 2.54)
          (name "A" (effects (font (size 1.27 1.27))))
          (number "2" (effects (font (size 1.27 1.27))))
        )
      )
    )
    (symbol "MCU_Microchip_ATmega:ATmega8-16P" (in_bom yes) (on_board yes)
      (property "Reference" "U" (at -12.7 34.29 0)
        (effects (font (size 1.27 1.27)) (justify left bottom))
      )
      (property "Value" "ATmega8-16P" (at 5.08 -34.29 0)
        (effects (font (size 1.27 1.27)) (justify left top))
      )
      (property "Footprint" "Package_DIP:DIP-28_W7.62mm" (at 0 0 0)
        (effects (font (size 1.27 1.27) italic) hide)
      )
      (property "Datasheet" "http://ww1.microchip.com/downloads/en/DeviceDoc/atmel-2486-8-bit-avr-microcontroller-atmega8_l_datasheet.pdf" (at 0 0 0)
        (effects (font (size 1.27 1.27)) hide)
      )
      (property "ki_keywords" "AVR 8bit Microcontroller MegaAVR" (at 0 0 0)
        (effects (font (size 1.27 1.27)) hide)
      )
      (property "ki_description" "16MHz, 8kB Flash, 1kB SRAM, 512B EEPROM, DIP-28" (at 0 0 0)
        (effects (font (size 1.27 1.27)) hide)
      )
      (property "ki_fp_filters" "DIP*W7.62mm*" (at 0 0 0)
        (effects (font (size 1.27 1.27)) hide)
      )
      (symbol "ATmega8-16P_0_1"
        (rectangle (start -12.7 -33.02) (end 12.7 33.02)
          (stroke (width 0.254) (type default))
          (fill (type background))
        )
      )
      (symbol "ATmega8-16P_1_1"
        (pin bidirectional line (at -15.24 27.94 0) (length 2.54)
          (name "PC6/~{RESET}" (effects (font (size 1.27 1.27))))
          (number "1" (effects (font (size 1.27 1.27))))
        )
        (pin bidirectional line (at -15.24 17.78 0) (length 2.54)
          (name "PB7/XTAL2" (effects (font (size 1.27 1.27))))
          (number "10" (effects (font (size 1.27 1.27))))
        )
        (pin bidirectional line (at 15.24 -20.32 180) (length 2.54)
          (name "PD5" (effects (font (size 1.27 1.27))))
          (number "11" (effects (font (size 1.27 1.27))))
        )
        (pin bidirectional line (at 15.24 -22.86 180) (length 2.54)
          (name "PD6" (effects (font (size 1.27 1.27))))
          (number "12" (effects (font (size 1.27 1.27))))
        )
        (pin bidirectional line (at 15.24 -25.4 180) (length 2.54)
          (name "PD7" (effects (font (size 1.27 1.27))))
          (number "13" (effects (font (size 1.27 1.27))))
        )
        (pin bidirectional line (at 15.24 27.94 180) (length 2.54)
          (name "PB0" (effects (font (size 1.27 1.27))))
          (number "14" (effects (font (size 1.27 1.27))))
        )
        (pin bidirectional line (at 15.24 25.4 180) (length 2.54)
          (name "PB1" (effects (font (size 1.27 1.27))))
          (number "15" (effects (font (size 1.27 1.27))))
        )
        (pin bidirectional line (at 15.24 22.86 180) (length 2.54)
          (name "PB2" (effects (font (size 1.27 1.27))))
          (number "16" (effects (font (size 1.27 1.27))))
        )
        (pin bidirectional line (at 15.24 20.32 180) (length 2.54)
          (name "PB3" (effects (font (size 1.27 1.27))))
          (number "17" (effects (font (size 1.27 1.27))))
        )
        (pin bidirectional line (at 15.24 17.78 180) (length 2.54)
          (name "PB4" (effects (font (size 1.27 1.27))))
          (number "18" (effects (font (size 1.27 1.27))))
        )
        (pin bidirectional line (at 15.24 15.24 180) (length 2.54)
          (name "PB5" (effects (font (size 1.27 1.27))))
          (number "19" (effects (font (size 1.27 1.27))))
        )
        (pin bidirectional line (at 15.24 -7.62 180) (length 2.54)
          (name "PD0" (effects (font (size 1.27 1.27))))
          (number "2" (effects (font (size 1.27 1.27))))
        )
        (pin power_in line (at 2.54 35.56 270) (length 2.54)
          (name "AVCC" (effects (font (size 1.27 1.27))))
          (number "20" (effects (font (size 1.27 1.27))))
        )
        (pin passive line (at -15.24 12.7 0) (length 2.54)
          (name "AREF" (effects (font (size 1.27 1.27))))
          (number "21" (effects (font (size 1.27 1.27))))
        )
        (pin power_in line (at 2.54 -35.56 90) (length 2.54)
          (name "AGND" (effects (font (size 1.27 1.27))))
          (number "22" (effects (font (size 1.27 1.27))))
        )
        (pin bidirectional line (at 15.24 10.16 180) (length 2.54)
          (name "PC0" (effects (font (size 1.27 1.27))))
          (number "23" (effects (font (size 1.27 1.27))))
        )
        (pin bidirectional line (at 15.24 7.62 180) (length 2.54)
          (name "PC1" (effects (font (size 1.27 1.27))))
          (number "24" (effects (font (size 1.27 1.27))))
        )
        (pin bidirectional line (at 15.24 5.08 180) (length 2.54)
          (name "PC2" (effects (font (size 1.27 1.27))))
          (number "25" (effects (font (size 1.27 1.27))))
        )
        (pin bidirectional line (at 15.24 2.54 180) (length 2.54)
          (name "PC3" (effects (font (size 1.27 1.27))))
          (number "26" (effects (font (size 1.27 1.27))))
        )
        (pin bidirectional line (at 15.24 0 180) (length 2.54)
          (name "PC4" (effects (font (size 1.27 1.27))))
          (number "27" (effects (font (size 1.27 1.27))))
        )
        (pin bidirectional line (at 15.24 -2.54 180) (length 2.54)
          (name "PC5" (effects (font (size 1.27 1.27))))
          (number "28" (effects (font (size 1.27 1.27))))
        )
        (pin bidirectional line (at 15.24 -10.16 180) (length 2.54)
          (name "PD1" (effects (font (size 1.27 1.27))))
          (number "3" (effects (font (size 1.27 1.27))))
        )
        (pin bidirectional line (at 15.24 -12.7 180) (length 2.54)
          (name "PD2" (effects (font (size 1.27 1.27))))
          (number "4" (effects (font (size 1.27 1.27))))
        )
        (pin bidirectional line (at 15.24 -15.24 180) (length 2.54)
          (name "PD3" (effects (font (size 1.27 1.27))))
          (number "5" (effects (font (size 1.27 1.27))))
        )
        (pin bidirectional line (at 15.24 -17.78 180) (length 2.54)
          (name "PD4" (effects (font (size 1.27 1.27))))
          (number "6" (effects (font (size 1.27 1.27))))
        )
        (pin power_in line (at 0 35.56 270) (length 2.54)
          (name "VCC" (effects (font (size 1.27 1.27))))
          (number "7" (effects (font (size 1.27 1.27))))
        )
        (pin power_in line (at 0 -35.56 90) (length 2.54)
          (name "GND" (effects (font (size 1.27 1.27))))
          (number "8" (effects (font (size 1.27 1.27))))
        )
        (pin bidirectional line (at -15.24 22.86 0) (length 2.54)
          (name "PB6/XTAL1" (effects (font (size 1.27 1.27))))
          (number "9" (effects (font (size 1.27 1.27))))
        )
      )
    )
    (symbol "power:+5V" (power) (pin_names (offset 0)) (in_bom yes) (on_board yes)
      (property "Reference" "#PWR" (at 0 -3.81 0)
        (effects (font (size 1.27 1.27)) hide)
      )
      (property "Value" "+5V" (at 0 3.556 0)
        (effects (font (size 1.27 1.27)))
      )
      (property "Footprint" "" (at 0 0 0)
        (effects (font (size 1.27 1.27)) hide)
      )
      (property "Datasheet" "" (at 0 0 0)
        (effects (font (size 1.27 1.27)) hide)
      )
      (property "ki_keywords" "global power" (at 0 0 0)
        (effects (font (size 1.27 1.27)) hide)
      )
      (property "ki_description" "Power symbol creates a global label with name \"+5V\"" (at 0 0 0)
        (effects (font (size 1.27 1.27)) hide)
      )
      (symbol "+5V_0_1"
        (polyline
          (pts
            (xy -0.762 1.27)
            (xy 0 2.54)
          )
          (stroke (width 0) (type default))
          (fill (type none))
        )
        (polyline
          (pts
            (xy 0 0)
            (xy 0 2.54)
          )
          (stroke (width 0) (type default))
          (fill (type none))
        )
        (polyline
          (pts
            (xy 0 2.54)
            (xy 0.762 1.27)
          )
          (stroke (width 0) (type default))
          (fill (type none))
        )
      )
      (symbol "+5V_1_1"
        (pin power_in line (at 0 0 90) (length 0) hide
          (name "+5V" (effects (font (size 1.27 1.27))))
          (number "1" (effects (font (size 1.27 1.27))))
        )
      )
    )
    (symbol "power:GND" (power) (pin_names (offset 0)) (in_bom yes) (on_board yes)
      (property "Reference" "#PWR" (at 0 -6.35 0)
        (effects (font (size 1.27 1.27)) hide)
      )
      (property "Value" "GND" (at 0 -3.81 0)
        (effects (font (size 1.27 1.27)))
      )
      (property "Footprint" "" (at 0 0 0)
        (effects (font (size 1.27 1.27)) hide)
      )
      (property "Datasheet" "" (at 0 0 0)
        (effects (font (size 1.27 1.27)) hide)
      )
      (property "ki_keywords" "global power" (at 0 0 0)
        (effects (font (size 1.27 1.27)) hide)
      )
      (property "ki_description" "Power symbol creates a global label with name \"GND\" , ground" (at 0 0 0)
        (effects (font (size 1.27 1.27)) hide)
      )
      (symbol "GND_0_1"
        (polyline
          (pts
            (xy 0 0)
            (xy 0 -1.27)
            (xy 1.27 -1.27)
            (xy 0 -2.54)
            (xy -1.27 -1.27)
            (xy 0 -1.27)
          )
          (stroke (width 0) (type default))
          (fill (type none))
        )
      )
      (symbol "GND_1_1"
        (pin power_in line (at 0 0 270) (length 0) hide
          (name "GND" (effects (font (size 1.27 1.27))))
          (number "1" (effects (font (size 1.27 1.27))))
        )
      )
    )
  )

  (junction (at 60.96 162.56) (diameter 0) (color 0 0 0 0)
    (uuid 1a5f3260-ce70-49a0-8a83-58f9328784f8)
  )
  (junction (at 57.15 162.56) (diameter 0) (color 0 0 0 0)
    (uuid 1fa9ac71-960f-4828-91b9-72d7f356ad9a)
  )
  (junction (at 95.885 63.5) (diameter 0) (color 0 0 0 0)
    (uuid 24c344bc-d400-4190-bc9b-9fc502f6a732)
  )
  (junction (at 201.93 106.68) (diameter 0) (color 0 0 0 0)
    (uuid 2d0f1c13-5668-49a4-8e7c-07edd3074976)
  )
  (junction (at 44.45 162.56) (diameter 0) (color 0 0 0 0)
    (uuid 398ac837-cb33-4b1e-9467-b7732b288537)
  )
  (junction (at 114.3 59.69) (diameter 0) (color 0 0 0 0)
    (uuid 460b5ffa-f8d2-476b-bded-b1ec42e5dd18)
  )
  (junction (at 147.32 62.23) (diameter 0) (color 0 0 0 0)
    (uuid 46676e2e-5fe8-4f34-a388-377987484617)
  )
  (junction (at 44.45 167.64) (diameter 0) (color 0 0 0 0)
    (uuid 4d6d9cf1-ff6d-4dec-98bf-210d97dcca26)
  )
  (junction (at 48.26 167.64) (diameter 0) (color 0 0 0 0)
    (uuid 513893a6-9fce-4830-baa0-19b08f0f84b7)
  )
  (junction (at 95.885 71.12) (diameter 0) (color 0 0 0 0)
    (uuid 74773da2-782b-418b-b064-e0821471ba4d)
  )
  (junction (at 224.79 111.76) (diameter 0) (color 0 0 0 0)
    (uuid 90358e35-d3f2-4368-8cf0-b3aa023565ef)
  )
  (junction (at 129.54 125.095) (diameter 0) (color 0 0 0 0)
    (uuid a4582a39-66cd-4262-800a-6f531ca75704)
  )
  (junction (at 132.08 49.53) (diameter 0) (color 0 0 0 0)
    (uuid d573954a-ec28-4343-be27-ff094f885807)
  )

  (wire (pts (xy 114.3 71.12) (xy 114.3 69.85))
    (stroke (width 0) (type default))
    (uuid 031a2369-9e16-44f3-8efa-6bd41fadf908)
  )
  (wire (pts (xy 57.15 162.56) (xy 57.15 171.45))
    (stroke (width 0) (type default))
    (uuid 04473225-6766-43f1-9a0b-ccc58ce3ec5b)
  )
  (wire (pts (xy 45.72 149.86) (xy 45.72 144.78))
    (stroke (width 0) (type default))
    (uuid 09ed3d44-3628-433a-b080-4cfc8cf32dcc)
  )
  (wire (pts (xy 119.38 165.1) (xy 119.38 168.91))
    (stroke (width 0) (type default))
    (uuid 0ab9bcba-5c20-4d29-9d15-a0338ef95ca0)
  )
  (wire (pts (xy 106.68 59.69) (xy 114.3 59.69))
    (stroke (width 0) (type default))
    (uuid 0d11cdfb-c462-4300-baa0-1fd8182c0bef)
  )
  (wire (pts (xy 201.93 106.68) (xy 208.28 106.68))
    (stroke (width 0) (type default))
    (uuid 108c2c44-25af-4c86-8cc0-ae685b8df9d7)
  )
  (wire (pts (xy 144.78 80.01) (xy 181.61 80.01))
    (stroke (width 0) (type default))
    (uuid 13e2afe3-ad88-4c0b-8185-2e30f28b753f)
  )
  (wire (pts (xy 114.3 38.1) (xy 114.3 59.69))
    (stroke (width 0) (type default))
    (uuid 15a27c97-db0a-4ac6-a10c-78aa3cfeb48a)
  )
  (wire (pts (xy 205.74 111.76) (xy 208.28 111.76))
    (stroke (width 0) (type default))
    (uuid 170d3b4a-95f3-4d77-ad13-032c23f303f8)
  )
  (wire (pts (xy 144.78 67.31) (xy 148.59 67.31))
    (stroke (width 0) (type default))
    (uuid 238de859-a4aa-4e8b-b733-ee047ec7837a)
  )
  (wire (pts (xy 133.35 165.1) (xy 133.35 168.91))
    (stroke (width 0) (type default))
    (uuid 24e99c30-a27d-4b97-bb81-24150d4acd06)
  )
  (wire (pts (xy 48.26 167.64) (xy 64.77 167.64))
    (stroke (width 0) (type default))
    (uuid 28774ba7-cb55-4988-8095-5737b78d1cf7)
  )
  (wire (pts (xy 95.885 71.12) (xy 114.3 71.12))
    (stroke (width 0) (type default))
    (uuid 29840ee6-b5b8-4e4a-835e-35d2222c8f35)
  )
  (wire (pts (xy 144.78 64.77) (xy 148.59 64.77))
    (stroke (width 0) (type default))
    (uuid 2a00d166-b638-4007-8afe-9411802e113e)
  )
  (wire (pts (xy 144.78 69.85) (xy 148.59 69.85))
    (stroke (width 0) (type default))
    (uuid 2a3aa3db-0908-403f-a222-75478e4d2941)
  )
  (wire (pts (xy 184.15 101.6) (xy 189.23 101.6))
    (stroke (width 0) (type default))
    (uuid 2d8e8ad7-856b-4d37-be87-b3d8c40d3289)
  )
  (wire (pts (xy 220.98 101.6) (xy 236.22 101.6))
    (stroke (width 0) (type default))
    (uuid 2f928429-9977-40a7-ba76-3f22866e2aad)
  )
  (wire (pts (xy 220.98 111.76) (xy 224.79 111.76))
    (stroke (width 0) (type default))
    (uuid 30cb32be-e6ba-4169-b130-4a239c648625)
  )
  (wire (pts (xy 44.45 167.64) (xy 48.26 167.64))
    (stroke (width 0) (type default))
    (uuid 3585c3e1-9418-4c00-b9ca-cda027cce6b0)
  )
  (wire (pts (xy 236.22 85.09) (xy 236.22 88.9))
    (stroke (width 0) (type default))
    (uuid 37dc834a-f82b-43c1-bf4d-133e2606083d)
  )
  (wire (pts (xy 57.15 162.56) (xy 60.96 162.56))
    (stroke (width 0) (type default))
    (uuid 3a379282-dbca-45df-b12e-a5a3941085c7)
  )
  (wire (pts (xy 91.44 71.12) (xy 95.885 71.12))
    (stroke (width 0) (type default))
    (uuid 3f5921b4-d54e-47da-9a7a-88ef162c9211)
  )
  (wire (pts (xy 144.78 82.55) (xy 154.94 82.55))
    (stroke (width 0) (type default))
    (uuid 4185951a-5155-4e9b-8bc4-a7e8f7a6e01c)
  )
  (wire (pts (xy 220.98 109.22) (xy 224.79 109.22))
    (stroke (width 0) (type default))
    (uuid 41904fcc-b38b-4a1f-a0a2-d6d7a0802ad8)
  )
  (wire (pts (xy 129.54 125.095) (xy 132.08 125.095))
    (stroke (width 0) (type default))
    (uuid 4822268f-2566-40c2-8195-505f958c5357)
  )
  (wire (pts (xy 184.15 109.22) (xy 189.23 109.22))
    (stroke (width 0) (type default))
    (uuid 4d494a72-f077-4abb-b097-1f8f0dcbfc8d)
  )
  (wire (pts (xy 201.93 87.63) (xy 201.93 106.68))
    (stroke (width 0) (type default))
    (uuid 5244618b-f6c4-4cbf-9ac5-918be417ec27)
  )
  (wire (pts (xy 201.93 38.1) (xy 114.3 38.1))
    (stroke (width 0) (type default))
    (uuid 589e402c-24fc-44ec-bd07-783b39a71de9)
  )
  (wire (pts (xy 181.61 52.07) (xy 181.61 57.15))
    (stroke (width 0) (type default))
    (uuid 597d0ea5-f1ef-4c56-9e58-10704d1d89a8)
  )
  (wire (pts (xy 72.39 167.64) (xy 80.01 167.64))
    (stroke (width 0) (type default))
    (uuid 5b390c2b-5c0c-4fd0-a8fa-e650ea8ebdef)
  )
  (wire (pts (xy 132.08 123.19) (xy 132.08 125.095))
    (stroke (width 0) (type default))
    (uuid 5cc7ab10-7618-4158-92fc-ee8976a4639d)
  )
  (wire (pts (xy 224.79 111.76) (xy 224.79 114.3))
    (stroke (width 0) (type default))
    (uuid 6271b7e8-0d37-4f8f-b1df-7fe443ff0332)
  )
  (wire (pts (xy 60.96 162.56) (xy 64.77 162.56))
    (stroke (width 0) (type default))
    (uuid 64a44ff1-3829-401b-9542-40a019f7b1eb)
  )
  (wire (pts (xy 81.28 63.5) (xy 81.28 64.77))
    (stroke (width 0) (type default))
    (uuid 699a6fdb-78d2-4100-88e8-c715aecad151)
  )
  (wire (pts (xy 144.78 77.47) (xy 163.83 77.47))
    (stroke (width 0) (type default))
    (uuid 6a2aff8a-f9ed-4b83-a880-a207fdecde17)
  )
  (wire (pts (xy 95.885 63.5) (xy 114.3 63.5))
    (stroke (width 0) (type default))
    (uuid 6ee7d493-094c-4010-b115-61249a41b168)
  )
  (wire (pts (xy 114.3 63.5) (xy 114.3 64.77))
    (stroke (width 0) (type default))
    (uuid 71de4e4d-15ef-41a7-98be-01747436b6f5)
  )
  (wire (pts (xy 29.21 187.96) (xy 29.21 190.5))
    (stroke (width 0) (type default))
    (uuid 74c7ca0a-95ed-4f46-bbc9-df7da783c6d3)
  )
  (wire (pts (xy 60.96 148.59) (xy 60.96 151.13))
    (stroke (width 0) (type default))
    (uuid 78822f28-c045-4db4-91cb-6d21fd9700a7)
  )
  (wire (pts (xy 163.83 52.07) (xy 163.83 57.15))
    (stroke (width 0) (type default))
    (uuid 78a25c10-883d-4b03-9f04-65599c271668)
  )
  (wire (pts (xy 81.28 63.5) (xy 83.82 63.5))
    (stroke (width 0) (type default))
    (uuid 8150e665-5a8f-4854-b19a-719b00f043a4)
  )
  (wire (pts (xy 144.78 59.69) (xy 148.59 59.69))
    (stroke (width 0) (type default))
    (uuid 84218a2c-3470-483f-b435-fbe742eb25b1)
  )
  (wire (pts (xy 106.68 56.515) (xy 106.68 59.69))
    (stroke (width 0) (type default))
    (uuid 84fe8738-98d9-4f04-be67-fd7ecca6e156)
  )
  (wire (pts (xy 57.15 179.07) (xy 57.15 182.88))
    (stroke (width 0) (type default))
    (uuid 8ad05ba8-aa90-4316-8623-300abde12b04)
  )
  (wire (pts (xy 220.98 104.14) (xy 227.33 104.14))
    (stroke (width 0) (type default))
    (uuid 8ae45ef7-2366-4af0-98a5-7dda75e195c2)
  )
  (wire (pts (xy 144.78 95.25) (xy 149.86 95.25))
    (stroke (width 0) (type default))
    (uuid 8d162f8e-c435-4ce4-96ab-a4a97c2148a2)
  )
  (wire (pts (xy 163.83 77.47) (xy 163.83 74.93))
    (stroke (width 0) (type default))
    (uuid 90c92e59-fcdb-44b0-a2f7-b004ea203c68)
  )
  (wire (pts (xy 91.44 63.5) (xy 95.885 63.5))
    (stroke (width 0) (type default))
    (uuid 9348fecd-de25-49b9-9e3c-3558899b6788)
  )
  (wire (pts (xy 201.93 85.09) (xy 201.93 38.1))
    (stroke (width 0) (type default))
    (uuid 9760ca6a-8ab6-47b1-a5aa-290ada35d26f)
  )
  (wire (pts (xy 119.38 152.4) (xy 119.38 157.48))
    (stroke (width 0) (type default))
    (uuid 9a57c84a-7797-4219-9c97-e3a6bf04d58a)
  )
  (wire (pts (xy 147.32 100.33) (xy 147.32 62.23))
    (stroke (width 0) (type default))
    (uuid 9ddb0fbb-5103-40d2-bbda-2fe05f449624)
  )
  (wire (pts (xy 81.28 71.12) (xy 83.82 71.12))
    (stroke (width 0) (type default))
    (uuid a15eec6f-da35-488c-b0fc-86ade42bddb0)
  )
  (wire (pts (xy 181.61 80.01) (xy 181.61 74.93))
    (stroke (width 0) (type default))
    (uuid a3b115d6-0d18-411c-8708-25f5aa7a278e)
  )
  (wire (pts (xy 129.54 49.53) (xy 132.08 49.53))
    (stroke (width 0) (type default))
    (uuid a4aa900b-7417-4463-bf95-41b0f1e6d425)
  )
  (wire (pts (xy 44.45 167.64) (xy 44.45 170.18))
    (stroke (width 0) (type default))
    (uuid a65683ac-e201-4885-8698-e77c44782417)
  )
  (wire (pts (xy 205.74 87.63) (xy 201.93 87.63))
    (stroke (width 0) (type default))
    (uuid a97f325f-d2b6-4f2a-8d89-f370ca114cdf)
  )
  (wire (pts (xy 184.15 106.68) (xy 189.23 106.68))
    (stroke (width 0) (type default))
    (uuid acf84de6-0021-4597-8038-97f0d7007539)
  )
  (wire (pts (xy 129.54 52.07) (xy 129.54 49.53))
    (stroke (width 0) (type default))
    (uuid ae1e73b5-e21d-470c-9481-8133b2e9c7d1)
  )
  (wire (pts (xy 21.59 187.96) (xy 21.59 190.5))
    (stroke (width 0) (type default))
    (uuid ae9207e1-5e5e-4bcb-ad9c-70ef19150134)
  )
  (wire (pts (xy 220.98 106.68) (xy 240.03 106.68))
    (stroke (width 0) (type default))
    (uuid b159dc9b-c3cc-41e1-a026-4e5f8e34fa95)
  )
  (wire (pts (xy 48.26 167.64) (xy 48.26 171.45))
    (stroke (width 0) (type default))
    (uuid b78e8b79-4492-49c1-a377-94ab8d5a23cf)
  )
  (wire (pts (xy 133.35 152.4) (xy 133.35 157.48))
    (stroke (width 0) (type default))
    (uuid b8808368-bf3a-498e-ac1d-992bbdae11ff)
  )
  (wire (pts (xy 224.79 109.22) (xy 224.79 111.76))
    (stroke (width 0) (type default))
    (uuid b8e8ec0b-1d8a-40d1-8e17-a2a9a55c9ce4)
  )
  (wire (pts (xy 234.95 104.14) (xy 240.03 104.14))
    (stroke (width 0) (type default))
    (uuid ba863d90-2aa4-47f9-99a4-0fabc04cf299)
  )
  (wire (pts (xy 60.96 158.75) (xy 60.96 162.56))
    (stroke (width 0) (type default))
    (uuid baa6d981-fbec-4ac0-aed0-b898079c1ecb)
  )
  (wire (pts (xy 144.78 62.23) (xy 147.32 62.23))
    (stroke (width 0) (type default))
    (uuid bcde2086-ac6d-4a08-ad4c-037376381cba)
  )
  (wire (pts (xy 44.45 162.56) (xy 57.15 162.56))
    (stroke (width 0) (type default))
    (uuid bfb45651-6e7f-491f-818e-9354d54c4344)
  )
  (wire (pts (xy 144.78 72.39) (xy 148.59 72.39))
    (stroke (width 0) (type default))
    (uuid c2f96212-4fb9-4dc5-9445-9e3b85d1daa5)
  )
  (wire (pts (xy 144.78 97.79) (xy 149.86 97.79))
    (stroke (width 0) (type default))
    (uuid c47de5fc-d460-4e16-8cf6-06fd3d70f0c8)
  )
  (wire (pts (xy 196.85 101.6) (xy 208.28 101.6))
    (stroke (width 0) (type default))
    (uuid cb27a987-a546-48d8-bf14-eb54cb34396a)
  )
  (wire (pts (xy 163.83 64.77) (xy 163.83 67.31))
    (stroke (width 0) (type default))
    (uuid d096b185-b527-4292-b8ec-e664affc8f95)
  )
  (wire (pts (xy 48.26 179.07) (xy 48.26 182.88))
    (stroke (width 0) (type default))
    (uuid d0f4193e-d911-4bf5-ab7b-22c2881061fb)
  )
  (wire (pts (xy 236.22 101.6) (xy 236.22 91.44))
    (stroke (width 0) (type default))
    (uuid db109b9f-cf88-4086-bdeb-3e1cb7d91a8d)
  )
  (wire (pts (xy 196.85 109.22) (xy 208.28 109.22))
    (stroke (width 0) (type default))
    (uuid ddf539dc-756e-4502-8cf8-dc6c79a8c01b)
  )
  (wire (pts (xy 106.68 46.355) (xy 106.68 48.895))
    (stroke (width 0) (type default))
    (uuid de0fc79f-27e4-41b0-9135-c19eb1aff4a8)
  )
  (wire (pts (xy 72.39 162.56) (xy 80.01 162.56))
    (stroke (width 0) (type default))
    (uuid dfe2c604-5c8f-47d3-b8f5-459d405aadca)
  )
  (wire (pts (xy 132.08 49.53) (xy 132.08 52.07))
    (stroke (width 0) (type default))
    (uuid e1540914-1d47-4b1b-9d9d-696170060610)
  )
  (wire (pts (xy 44.45 149.86) (xy 45.72 149.86))
    (stroke (width 0) (type default))
    (uuid ea96054e-007e-4fdc-add6-df98ac0765cf)
  )
  (wire (pts (xy 181.61 64.77) (xy 181.61 67.31))
    (stroke (width 0) (type default))
    (uuid eabc4fbf-5524-4282-b604-9a03dda0eeb7)
  )
  (wire (pts (xy 205.74 85.09) (xy 201.93 85.09))
    (stroke (width 0) (type default))
    (uuid ed0cfb8c-0279-40b9-a093-0d4f18476b8b)
  )
  (wire (pts (xy 81.28 72.39) (xy 81.28 71.12))
    (stroke (width 0) (type default))
    (uuid edec4cdf-50ec-4637-950c-1a0ed3897c2c)
  )
  (wire (pts (xy 129.54 125.095) (xy 129.54 126.365))
    (stroke (width 0) (type default))
    (uuid ee4ea8bd-dbbe-473e-b71b-867062d356c6)
  )
  (wire (pts (xy 129.54 123.19) (xy 129.54 125.095))
    (stroke (width 0) (type default))
    (uuid f0eda4a8-1a31-41d7-b5da-39aeecc18ba1)
  )
  (wire (pts (xy 144.78 100.33) (xy 147.32 100.33))
    (stroke (width 0) (type default))
    (uuid f12c18ab-302a-43f6-beb0-9df1d2fe5656)
  )
  (wire (pts (xy 44.45 162.56) (xy 44.45 165.1))
    (stroke (width 0) (type default))
    (uuid f33dad19-2fa3-438e-a530-ee113b072462)
  )
  (wire (pts (xy 132.08 45.72) (xy 132.08 49.53))
    (stroke (width 0) (type default))
    (uuid f41692d0-42d7-4264-a1dc-d9ef4c85e679)
  )
  (wire (pts (xy 154.94 85.09) (xy 154.94 87.63))
    (stroke (width 0) (type default))
    (uuid f4a2215c-d9c5-4b2e-8ea5-fdd37dd7585b)
  )
  (wire (pts (xy 147.32 62.23) (xy 148.59 62.23))
    (stroke (width 0) (type default))
    (uuid f64efbdd-ddf0-4c08-8679-95e315ba6b5c)
  )
  (wire (pts (xy 196.85 106.68) (xy 201.93 106.68))
    (stroke (width 0) (type default))
    (uuid f855b180-8b03-4f52-8e2a-60e54701b1f2)
  )

  (global_label "PD1" (shape input) (at 149.86 97.79 0) (fields_autoplaced)
    (effects (font (size 1.27 1.27)) (justify left))
    (uuid 2ed49a7e-1f33-4cc1-8539-f3b5f6a750c4)
    (property "Intersheetrefs" "${INTERSHEET_REFS}" (at 156.5153 97.79 0)
      (effects (font (size 1.27 1.27)) (justify left) hide)
    )
  )
  (global_label "PB3" (shape input) (at 148.59 67.31 0) (fields_autoplaced)
    (effects (font (size 1.27 1.27)) (justify left))
    (uuid 30d0f170-5d80-45a4-ad9a-432fd410b5b9)
    (property "Intersheetrefs" "${INTERSHEET_REFS}" (at 155.2453 67.31 0)
      (effects (font (size 1.27 1.27)) (justify left) hide)
    )
  )
  (global_label "PB4" (shape input) (at 148.59 69.85 0) (fields_autoplaced)
    (effects (font (size 1.27 1.27)) (justify left))
    (uuid 58389978-677b-4140-aad1-e937f7f88884)
    (property "Intersheetrefs" "${INTERSHEET_REFS}" (at 155.2453 69.85 0)
      (effects (font (size 1.27 1.27)) (justify left) hide)
    )
  )
  (global_label "PD0" (shape input) (at 240.03 106.68 0) (fields_autoplaced)
    (effects (font (size 1.27 1.27)) (justify left))
    (uuid 60aaa34f-04e0-4d06-8dd2-c43e7d6be511)
    (property "Intersheetrefs" "${INTERSHEET_REFS}" (at 246.6853 106.68 0)
      (effects (font (size 1.27 1.27)) (justify left) hide)
    )
  )
  (global_label "PB3" (shape input) (at 184.15 101.6 180) (fields_autoplaced)
    (effects (font (size 1.27 1.27)) (justify right))
    (uuid 7fd7ab2a-034a-4533-9b02-2529319f1002)
    (property "Intersheetrefs" "${INTERSHEET_REFS}" (at 177.4947 101.6 0)
      (effects (font (size 1.27 1.27)) (justify right) hide)
    )
  )
  (global_label "PB5" (shape input) (at 148.59 72.39 0) (fields_autoplaced)
    (effects (font (size 1.27 1.27)) (justify left))
    (uuid 80e83616-d437-4207-9963-ebaccdd2d8f0)
    (property "Intersheetrefs" "${INTERSHEET_REFS}" (at 155.2453 72.39 0)
      (effects (font (size 1.27 1.27)) (justify left) hide)
    )
  )
  (global_label "PB0" (shape input) (at 80.01 162.56 0) (fields_autoplaced)
    (effects (font (size 1.27 1.27)) (justify left))
    (uuid 81e2f8d0-4a0f-41fa-acf4-98a869ad80d3)
    (property "Intersheetrefs" "${INTERSHEET_REFS}" (at 86.6653 162.56 0)
      (effects (font (size 1.27 1.27)) (justify left) hide)
    )
  )
  (global_label "PB1" (shape input) (at 80.01 167.64 0) (fields_autoplaced)
    (effects (font (size 1.27 1.27)) (justify left))
    (uuid 9a3729b5-51e1-4536-9b36-e22a12a26c0b)
    (property "Intersheetrefs" "${INTERSHEET_REFS}" (at 86.6653 167.64 0)
      (effects (font (size 1.27 1.27)) (justify left) hide)
    )
  )
  (global_label "PD1" (shape input) (at 240.03 104.14 0) (fields_autoplaced)
    (effects (font (size 1.27 1.27)) (justify left))
    (uuid a49eb6e8-c358-4a50-81aa-f45076d9b663)
    (property "Intersheetrefs" "${INTERSHEET_REFS}" (at 246.6853 104.14 0)
      (effects (font (size 1.27 1.27)) (justify left) hide)
    )
  )
  (global_label "PB0" (shape input) (at 148.59 59.69 0) (fields_autoplaced)
    (effects (font (size 1.27 1.27)) (justify left))
    (uuid a7715995-44b7-40a5-b9dc-9eaaa5a43141)
    (property "Intersheetrefs" "${INTERSHEET_REFS}" (at 155.2453 59.69 0)
      (effects (font (size 1.27 1.27)) (justify left) hide)
    )
  )
  (global_label "PB1" (shape input) (at 148.59 62.23 0) (fields_autoplaced)
    (effects (font (size 1.27 1.27)) (justify left))
    (uuid ab6327cf-7f1d-4261-a566-659088f18fea)
    (property "Intersheetrefs" "${INTERSHEET_REFS}" (at 155.2453 62.23 0)
      (effects (font (size 1.27 1.27)) (justify left) hide)
    )
  )
  (global_label "PB2" (shape input) (at 148.59 64.77 0) (fields_autoplaced)
    (effects (font (size 1.27 1.27)) (justify left))
    (uuid abb40d96-9777-4a7a-8079-581c059e11bc)
    (property "Intersheetrefs" "${INTERSHEET_REFS}" (at 155.2453 64.77 0)
      (effects (font (size 1.27 1.27)) (justify left) hide)
    )
  )
  (global_label "PD0" (shape input) (at 149.86 95.25 0) (fields_autoplaced)
    (effects (font (size 1.27 1.27)) (justify left))
    (uuid b8decc2f-cbf0-4cc1-b1a0-2ceca50df366)
    (property "Intersheetrefs" "${INTERSHEET_REFS}" (at 156.5153 95.25 0)
      (effects (font (size 1.27 1.27)) (justify left) hide)
    )
  )
  (global_label "PB5" (shape input) (at 184.15 109.22 180) (fields_autoplaced)
    (effects (font (size 1.27 1.27)) (justify right))
    (uuid c245f9e9-e7c1-4097-b712-2c563526febb)
    (property "Intersheetrefs" "${INTERSHEET_REFS}" (at 177.4947 109.22 0)
      (effects (font (size 1.27 1.27)) (justify right) hide)
    )
  )
  (global_label "PB2" (shape input) (at 184.15 106.68 180) (fields_autoplaced)
    (effects (font (size 1.27 1.27)) (justify right))
    (uuid d3bd5413-52ba-4101-9366-dd725d9ba8d7)
    (property "Intersheetrefs" "${INTERSHEET_REFS}" (at 177.4947 106.68 0)
      (effects (font (size 1.27 1.27)) (justify right) hide)
    )
  )
  (global_label "PB4" (shape input) (at 205.74 111.76 180) (fields_autoplaced)
    (effects (font (size 1.27 1.27)) (justify right))
    (uuid f1798575-c7d3-4456-b5de-b36b734d6908)
    (property "Intersheetrefs" "${INTERSHEET_REFS}" (at 199.0847 111.76 0)
      (effects (font (size 1.27 1.27)) (justify right) hide)
    )
  )

  (symbol (lib_id "power:GND") (at 81.28 72.39 0) (unit 1)
    (in_bom yes) (on_board yes) (dnp no) (fields_autoplaced)
    (uuid 0789ec9b-53c5-4b08-8307-9242a9362e6a)
    (property "Reference" "#PWR03" (at 81.28 78.74 0)
      (effects (font (size 1.27 1.27)) hide)
    )
    (property "Value" "GND" (at 81.28 76.835 0)
      (effects (font (size 1.27 1.27)))
    )
    (property "Footprint" "" (at 81.28 72.39 0)
      (effects (font (size 1.27 1.27)) hide)
    )
    (property "Datasheet" "" (at 81.28 72.39 0)
      (effects (font (size 1.27 1.27)) hide)
    )
    (pin "1" (uuid d8fed320-7b6f-489c-95cf-1804497ee6c9))
    (instances
      (project "usbasp_programmer"
        (path "/1d5a162f-b01d-4a7a-9227-d38d60ff93c2"
          (reference "#PWR03") (unit 1)
        )
      )
    )
  )

  (symbol (lib_id "Device:C") (at 87.63 71.12 90) (unit 1)
    (in_bom yes) (on_board yes) (dnp no)
    (uuid 0957147e-a493-4d69-8653-c87a773ba974)
    (property "Reference" "C2" (at 87.63 77.47 90)
      (effects (font (size 1.27 1.27)))
    )
    (property "Value" "22pF" (at 87.63 74.93 90)
      (effects (font (size 1.27 1.27)))
    )
    (property "Footprint" "Capacitor_SMD:C_0805_2012Metric_Pad1.18x1.45mm_HandSolder" (at 91.44 70.1548 0)
      (effects (font (size 1.27 1.27)) hide)
    )
    (property "Datasheet" "~" (at 87.63 71.12 0)
      (effects (font (size 1.27 1.27)) hide)
    )
    (pin "1" (uuid 6a6d3157-0bca-415d-b27f-5b61dc6559dc))
    (pin "2" (uuid 1aa41a88-9571-45e3-84a6-a16592f2b8df))
    (instances
      (project "usbasp_programmer"
        (path "/1d5a162f-b01d-4a7a-9227-d38d60ff93c2"
          (reference "C2") (unit 1)
        )
      )
    )
  )

  (symbol (lib_id "Diode:BZV55B3V6") (at 57.15 175.26 90) (mirror x) (unit 1)
    (in_bom yes) (on_board yes) (dnp no) (fields_autoplaced)
    (uuid 0fdc98f2-29a0-4c34-81e7-6fdcc302e449)
    (property "Reference" "D5" (at 60.325 174.625 90)
      (effects (font (size 1.27 1.27)) (justify right))
    )
    (property "Value" "BZV55B3V6" (at 60.325 177.165 90)
      (effects (font (size 1.27 1.27)) (justify right))
    )
    (property "Footprint" "Diode_THT:D_DO-34_SOD68_P7.62mm_Horizontal" (at 61.595 175.26 0)
      (effects (font (size 1.27 1.27)) hide)
    )
    (property "Datasheet" "https://assets.nexperia.com/documents/data-sheet/BZV55_SER.pdf" (at 57.15 175.26 0)
      (effects (font (size 1.27 1.27)) hide)
    )
    (pin "1" (uuid a32b1aa8-a8ff-4133-9d05-532790b428ac))
    (pin "2" (uuid e96f4dd2-a461-45a8-913e-984f2e771d80))
    (instances
      (project "usbasp_programmer"
        (path "/1d5a162f-b01d-4a7a-9227-d38d60ff93c2"
          (reference "D5") (unit 1)
        )
      )
    )
  )

  (symbol (lib_id "power:+5V") (at 60.96 148.59 0) (unit 1)
    (in_bom yes) (on_board yes) (dnp no) (fields_autoplaced)
    (uuid 13a4f2c9-bb4a-4175-82d7-5a556e710be9)
    (property "Reference" "#PWR012" (at 60.96 152.4 0)
      (effects (font (size 1.27 1.27)) hide)
    )
    (property "Value" "+5V" (at 60.96 145.415 0)
      (effects (font (size 1.27 1.27)))
    )
    (property "Footprint" "" (at 60.96 148.59 0)
      (effects (font (size 1.27 1.27)) hide)
    )
    (property "Datasheet" "" (at 60.96 148.59 0)
      (effects (font (size 1.27 1.27)) hide)
    )
    (pin "1" (uuid ab2727a2-812a-42e1-9652-67aff42ef194))
    (instances
      (project "usbasp_programmer"
        (path "/1d5a162f-b01d-4a7a-9227-d38d60ff93c2"
          (reference "#PWR012") (unit 1)
        )
      )
    )
  )

  (symbol (lib_id "Device:Crystal") (at 95.885 67.31 90) (unit 1)
    (in_bom yes) (on_board yes) (dnp no) (fields_autoplaced)
    (uuid 14731b34-8421-4197-bc6d-c12b807e4a18)
    (property "Reference" "Y1" (at 99.695 66.675 90)
      (effects (font (size 1.27 1.27)) (justify right))
    )
    (property "Value" "Crystal" (at 99.695 69.215 90)
      (effects (font (size 1.27 1.27)) (justify right))
    )
    (property "Footprint" "Crystal:Crystal_HC49-U_Horizontal" (at 95.885 67.31 0)
      (effects (font (size 1.27 1.27)) hide)
    )
    (property "Datasheet" "~" (at 95.885 67.31 0)
      (effects (font (size 1.27 1.27)) hide)
    )
    (pin "1" (uuid bc812bd6-b3c3-4625-b22d-ae69f82bc133))
    (pin "2" (uuid 1df6db47-6b19-4a5f-9dd2-f06fe3904881))
    (instances
      (project "usbasp_programmer"
        (path "/1d5a162f-b01d-4a7a-9227-d38d60ff93c2"
          (reference "Y1") (unit 1)
        )
      )
    )
  )

  (symbol (lib_id "Connector_Generic:Conn_02x05_Odd_Even") (at 213.36 106.68 0) (unit 1)
    (in_bom yes) (on_board yes) (dnp no) (fields_autoplaced)
    (uuid 16050d59-dd1e-44df-a44d-2616393ebecf)
    (property "Reference" "J2" (at 214.63 96.52 0)
      (effects (font (size 1.27 1.27)))
    )
    (property "Value" "Conn_02x05_Odd_Even" (at 214.63 99.06 0)
      (effects (font (size 1.27 1.27)))
    )
    (property "Footprint" "Connector_IDC:IDC-Header_2x05_P2.54mm_Vertical" (at 213.36 106.68 0)
      (effects (font (size 1.27 1.27)) hide)
    )
    (property "Datasheet" "~" (at 213.36 106.68 0)
      (effects (font (size 1.27 1.27)) hide)
    )
    (pin "1" (uuid 17c1a7e5-6d12-4579-aa3c-34eaad010928))
    (pin "10" (uuid e7bf82fe-10e1-4f6d-a5dc-3dcb3a98f79d))
    (pin "2" (uuid 2c3630ef-0e08-4898-b867-91a50ea21dcc))
    (pin "3" (uuid 3631ae0f-1cb4-4707-b179-275ca4e2f62a))
    (pin "4" (uuid 130d9713-a6a7-41fe-b91b-fb484fb830a3))
    (pin "5" (uuid 5f61cbd0-8ed1-48b1-990e-947a8ade97b4))
    (pin "6" (uuid e6fbaf0f-1180-400f-bac3-8408efc792dc))
    (pin "7" (uuid 5ca0397d-12d2-437e-9f64-aa1e25dcbb2f))
    (pin "8" (uuid b67ba899-8505-4706-944d-4afb2713a034))
    (pin "9" (uuid 4c554e10-bdb5-4ee6-8243-7dfb7943e160))
    (instances
      (project "usbasp_programmer"
        (path "/1d5a162f-b01d-4a7a-9227-d38d60ff93c2"
          (reference "J2") (unit 1)
        )
      )
    )
  )

  (symbol (lib_id "power:+5V") (at 163.83 52.07 0) (unit 1)
    (in_bom yes) (on_board yes) (dnp no) (fields_autoplaced)
    (uuid 1c3c1735-d87a-44b1-8fe0-afd21a240bf5)
    (property "Reference" "#PWR06" (at 163.83 55.88 0)
      (effects (font (size 1.27 1.27)) hide)
    )
    (property "Value" "+5V" (at 163.83 48.26 0)
      (effects (font (size 1.27 1.27)))
    )
    (property "Footprint" "" (at 163.83 52.07 0)
      (effects (font (size 1.27 1.27)) hide)
    )
    (property "Datasheet" "" (at 163.83 52.07 0)
      (effects (font (size 1.27 1.27)) hide)
    )
    (pin "1" (uuid b06a6832-f952-47a3-96a5-73abbfc076ed))
    (instances
      (project "usbasp_programmer"
        (path "/1d5a162f-b01d-4a7a-9227-d38d60ff93c2"
          (reference "#PWR06") (unit 1)
        )
      )
    )
  )

  (symbol (lib_id "Device:R") (at 68.58 167.64 90) (unit 1)
    (in_bom yes) (on_board yes) (dnp no)
    (uuid 2761200a-7b22-4ce7-8d2a-9fad6a3a3187)
    (property "Reference" "R9" (at 68.58 172.085 90)
      (effects (font (size 1.27 1.27)))
    )
    (property "Value" "68" (at 68.58 170.18 90)
      (effects (font (size 1.27 1.27)))
    )
    (property "Footprint" "Resistor_SMD:R_0805_2012Metric_Pad1.20x1.40mm_HandSolder" (at 68.58 169.418 90)
      (effects (font (size 1.27 1.27)) hide)
    )
    (property "Datasheet" "~" (at 68.58 167.64 0)
      (effects (font (size 1.27 1.27)) hide)
    )
    (pin "1" (uuid 70cc7dd5-54ee-4f6e-9616-bd24b7f0387e))
    (pin "2" (uuid 38e5462e-9e90-441c-b464-ab35c00661da))
    (instances
      (project "usbasp_programmer"
        (path "/1d5a162f-b01d-4a7a-9227-d38d60ff93c2"
          (reference "R9") (unit 1)
        )
      )
    )
  )

  (symbol (lib_id "power:GND") (at 154.94 87.63 0) (unit 1)
    (in_bom yes) (on_board yes) (dnp no) (fields_autoplaced)
    (uuid 2c9c41b1-69a2-4920-a5df-adf84d3a0526)
    (property "Reference" "#PWR08" (at 154.94 93.98 0)
      (effects (font (size 1.27 1.27)) hide)
    )
    (property "Value" "GND" (at 154.94 92.075 0)
      (effects (font (size 1.27 1.27)))
    )
    (property "Footprint" "" (at 154.94 87.63 0)
      (effects (font (size 1.27 1.27)) hide)
    )
    (property "Datasheet" "" (at 154.94 87.63 0)
      (effects (font (size 1.27 1.27)) hide)
    )
    (pin "1" (uuid 2817efca-5c7f-4bd2-ad4f-506bf0f2c1eb))
    (instances
      (project "usbasp_programmer"
        (path "/1d5a162f-b01d-4a7a-9227-d38d60ff93c2"
          (reference "#PWR08") (unit 1)
        )
      )
    )
  )

  (symbol (lib_id "Connector:Conn_01x02_Pin") (at 160.02 85.09 180) (unit 1)
    (in_bom yes) (on_board yes) (dnp no) (fields_autoplaced)
    (uuid 2e33b5ee-5ff7-490d-9f92-dd61e1223344)
    (property "Reference" "J1" (at 161.29 83.185 0)
      (effects (font (size 1.27 1.27)) (justify right))
    )
    (property "Value" "Slow SCK" (at 161.29 85.725 0)
      (effects (font (size 1.27 1.27)) (justify right))
    )
    (property "Footprint" "Connector_PinHeader_2.54mm:PinHeader_1x02_P2.54mm_Vertical" (at 160.02 85.09 0)
      (effects (font (size 1.27 1.27)) hide)
    )
    (property "Datasheet" "~" (at 160.02 85.09 0)
      (effects (font (size 1.27 1.27)) hide)
    )
    (pin "1" (uuid 7571630e-879c-441e-87b1-8e12455ddfb7))
    (pin "2" (uuid 47275be5-0380-464f-bce5-9285c9c5efe0))
    (instances
      (project "usbasp_programmer"
        (path "/1d5a162f-b01d-4a7a-9227-d38d60ff93c2"
          (reference "J1") (unit 1)
        )
      )
    )
  )

  (symbol (lib_id "Device:R") (at 181.61 71.12 180) (unit 1)
    (in_bom yes) (on_board yes) (dnp no) (fields_autoplaced)
    (uuid 381e7792-0a44-480c-a6d6-1bf31e389736)
    (property "Reference" "R7" (at 183.515 70.485 0)
      (effects (font (size 1.27 1.27)) (justify right))
    )
    (property "Value" "1k" (at 183.515 73.025 0)
      (effects (font (size 1.27 1.27)) (justify right))
    )
    (property "Footprint" "Resistor_SMD:R_0805_2012Metric_Pad1.20x1.40mm_HandSolder" (at 183.388 71.12 90)
      (effects (font (size 1.27 1.27)) hide)
    )
    (property "Datasheet" "~" (at 181.61 71.12 0)
      (effects (font (size 1.27 1.27)) hide)
    )
    (pin "1" (uuid 0b6c28a2-239f-4d6a-87c0-47bbf941da54))
    (pin "2" (uuid 3c5384b5-eea2-4d41-a367-bc4f5797bfe8))
    (instances
      (project "usbasp_programmer"
        (path "/1d5a162f-b01d-4a7a-9227-d38d60ff93c2"
          (reference "R7") (unit 1)
        )
      )
    )
  )

  (symbol (lib_id "power:GND") (at 224.79 114.3 0) (unit 1)
    (in_bom yes) (on_board yes) (dnp no) (fields_autoplaced)
    (uuid 39f3ff70-b846-4ac1-a3e4-aa6b594dc670)
    (property "Reference" "#PWR015" (at 224.79 120.65 0)
      (effects (font (size 1.27 1.27)) hide)
    )
    (property "Value" "GND" (at 224.79 119.38 0)
      (effects (font (size 1.27 1.27)))
    )
    (property "Footprint" "" (at 224.79 114.3 0)
      (effects (font (size 1.27 1.27)) hide)
    )
    (property "Datasheet" "" (at 224.79 114.3 0)
      (effects (font (size 1.27 1.27)) hide)
    )
    (pin "1" (uuid 60b8b229-7a10-4025-8415-b56f87cc32df))
    (instances
      (project "usbasp_programmer"
        (path "/1d5a162f-b01d-4a7a-9227-d38d60ff93c2"
          (reference "#PWR015") (unit 1)
        )
      )
    )
  )

  (symbol (lib_id "Device:R") (at 60.96 154.94 0) (unit 1)
    (in_bom yes) (on_board yes) (dnp no) (fields_autoplaced)
    (uuid 3a0eff4f-ac9c-47c5-b7c3-98a86663829b)
    (property "Reference" "R10" (at 62.865 154.305 0)
      (effects (font (size 1.27 1.27)) (justify left))
    )
    (property "Value" "2k2" (at 62.865 156.845 0)
      (effects (font (size 1.27 1.27)) (justify left))
    )
    (property "Footprint" "Resistor_SMD:R_0805_2012Metric_Pad1.20x1.40mm_HandSolder" (at 59.182 154.94 90)
      (effects (font (size 1.27 1.27)) hide)
    )
    (property "Datasheet" "~" (at 60.96 154.94 0)
      (effects (font (size 1.27 1.27)) hide)
    )
    (pin "1" (uuid 3b665ad1-1b86-48fb-8a67-c675f84529eb))
    (pin "2" (uuid 46023234-aa8b-43e4-8a9b-c0f0d75e8ce4))
    (instances
      (project "usbasp_programmer"
        (path "/1d5a162f-b01d-4a7a-9227-d38d60ff93c2"
          (reference "R10") (unit 1)
        )
      )
    )
  )

  (symbol (lib_id "power:GND") (at 129.54 126.365 0) (unit 1)
    (in_bom yes) (on_board yes) (dnp no) (fields_autoplaced)
    (uuid 3e232a03-9f51-48a6-b0a3-78a2a42c5c13)
    (property "Reference" "#PWR02" (at 129.54 132.715 0)
      (effects (font (size 1.27 1.27)) hide)
    )
    (property "Value" "GND" (at 129.54 131.445 0)
      (effects (font (size 1.27 1.27)))
    )
    (property "Footprint" "" (at 129.54 126.365 0)
      (effects (font (size 1.27 1.27)) hide)
    )
    (property "Datasheet" "" (at 129.54 126.365 0)
      (effects (font (size 1.27 1.27)) hide)
    )
    (pin "1" (uuid 00e67651-3b65-4bc8-922d-0300af779535))
    (instances
      (project "usbasp_programmer"
        (path "/1d5a162f-b01d-4a7a-9227-d38d60ff93c2"
          (reference "#PWR02") (unit 1)
        )
      )
    )
  )

  (symbol (lib_id "power:+5V") (at 181.61 52.07 0) (unit 1)
    (in_bom yes) (on_board yes) (dnp no) (fields_autoplaced)
    (uuid 3f6d8832-9773-4202-bcc3-568936f279fe)
    (property "Reference" "#PWR07" (at 181.61 55.88 0)
      (effects (font (size 1.27 1.27)) hide)
    )
    (property "Value" "+5V" (at 181.61 48.26 0)
      (effects (font (size 1.27 1.27)))
    )
    (property "Footprint" "" (at 181.61 52.07 0)
      (effects (font (size 1.27 1.27)) hide)
    )
    (property "Datasheet" "" (at 181.61 52.07 0)
      (effects (font (size 1.27 1.27)) hide)
    )
    (pin "1" (uuid 1c440309-2f31-4696-9e8b-6f48859d9ec1))
    (instances
      (project "usbasp_programmer"
        (path "/1d5a162f-b01d-4a7a-9227-d38d60ff93c2"
          (reference "#PWR07") (unit 1)
        )
      )
    )
  )

  (symbol (lib_id "Connector:USB_C_Receptacle_USB2.0") (at 29.21 165.1 0) (unit 1)
    (in_bom yes) (on_board yes) (dnp no) (fields_autoplaced)
    (uuid 434c849a-9452-4a98-9331-6a9f76c3b6b3)
    (property "Reference" "J5" (at 29.21 143.51 0)
      (effects (font (size 1.27 1.27)))
    )
    (property "Value" "USB_C_Receptacle_USB2.0" (at 29.21 146.05 0)
      (effects (font (size 1.27 1.27)))
    )
    (property "Footprint" "Connector_USB:USB_C_Receptacle_Palconn_UTC16-G" (at 33.02 165.1 0)
      (effects (font (size 1.27 1.27)) hide)
    )
    (property "Datasheet" "https://www.usb.org/sites/default/files/documents/usb_type-c.zip" (at 33.02 165.1 0)
      (effects (font (size 1.27 1.27)) hide)
    )
    (pin "A1" (uuid b07b0d22-fc0a-429d-95fe-c20159c69604))
    (pin "A12" (uuid daff6030-8d2c-44fc-a896-5c04a34200cb))
    (pin "A4" (uuid e46ace8c-eaf7-483f-8a5e-8a4cca9f9433))
    (pin "A5" (uuid 9f4f1d27-aa05-46ca-99be-c9936db8cdd2))
    (pin "A6" (uuid 9b35feab-a777-477f-9945-22d2245e394d))
    (pin "A7" (uuid 222c50f2-2d2d-4069-b7c5-55ad4f5a2594))
    (pin "A8" (uuid d3c8564b-00f2-4e66-ab9d-475ec34b7648))
    (pin "A9" (uuid eaf64ace-6587-4fcc-8008-59770e37d32b))
    (pin "B1" (uuid 21299b95-28d5-4920-8eb1-597a77dd13b3))
    (pin "B12" (uuid c4e22044-0b29-4bfa-8ae7-f4225cde7597))
    (pin "B4" (uuid 400e6932-2284-439e-8dea-2a28d1e5ef25))
    (pin "B5" (uuid 29050f0f-c070-4f48-a3b0-1fb7404fb96c))
    (pin "B6" (uuid d19ae0cb-93e5-493d-b0ba-0cecbe581257))
    (pin "B7" (uuid 9e3e073e-2e26-4e46-9e84-c72944d8fe30))
    (pin "B8" (uuid 9de08978-4a63-4de4-91e7-ef17b1360ed6))
    (pin "B9" (uuid 26ac9c66-eaf3-4a25-b3c0-376b38a4c20f))
    (pin "S1" (uuid 7334b936-467c-4c0d-b1f6-1cd90330260b))
    (instances
      (project "usbasp_programmer"
        (path "/1d5a162f-b01d-4a7a-9227-d38d60ff93c2"
          (reference "J5") (unit 1)
        )
      )
    )
  )

  (symbol (lib_id "Device:R") (at 193.04 101.6 90) (unit 1)
    (in_bom yes) (on_board yes) (dnp no)
    (uuid 4de8f159-fc54-4694-914d-7a1e7cf286b4)
    (property "Reference" "R3" (at 191.77 99.06 90)
      (effects (font (size 1.27 1.27)) (justify left))
    )
    (property "Value" "270" (at 198.12 99.06 90)
      (effects (font (size 1.27 1.27)) (justify left))
    )
    (property "Footprint" "Resistor_SMD:R_0805_2012Metric_Pad1.20x1.40mm_HandSolder" (at 193.04 103.378 90)
      (effects (font (size 1.27 1.27)) hide)
    )
    (property "Datasheet" "~" (at 193.04 101.6 0)
      (effects (font (size 1.27 1.27)) hide)
    )
    (pin "1" (uuid 4d308b21-852c-4c07-b852-9efac3055763))
    (pin "2" (uuid 4876a190-fe83-468d-8677-ed62cf22aca3))
    (instances
      (project "usbasp_programmer"
        (path "/1d5a162f-b01d-4a7a-9227-d38d60ff93c2"
          (reference "R3") (unit 1)
        )
      )
    )
  )

  (symbol (lib_id "power:+5V") (at 132.08 45.72 0) (unit 1)
    (in_bom yes) (on_board yes) (dnp no) (fields_autoplaced)
    (uuid 5d48d387-83cf-49a5-bf7a-7ea3d08a87c7)
    (property "Reference" "#PWR05" (at 132.08 49.53 0)
      (effects (font (size 1.27 1.27)) hide)
    )
    (property "Value" "+5V" (at 132.08 41.91 0)
      (effects (font (size 1.27 1.27)))
    )
    (property "Footprint" "" (at 132.08 45.72 0)
      (effects (font (size 1.27 1.27)) hide)
    )
    (property "Datasheet" "" (at 132.08 45.72 0)
      (effects (font (size 1.27 1.27)) hide)
    )
    (pin "1" (uuid db3475bf-eb94-42e3-b807-8e942782bc72))
    (instances
      (project "usbasp_programmer"
        (path "/1d5a162f-b01d-4a7a-9227-d38d60ff93c2"
          (reference "#PWR05") (unit 1)
        )
      )
    )
  )

  (symbol (lib_id "power:+5V") (at 106.68 46.355 0) (unit 1)
    (in_bom yes) (on_board yes) (dnp no) (fields_autoplaced)
    (uuid 5e1ae39a-d86e-4d09-87f1-f4949d739fd0)
    (property "Reference" "#PWR01" (at 106.68 50.165 0)
      (effects (font (size 1.27 1.27)) hide)
    )
    (property "Value" "+5V" (at 106.68 42.545 0)
      (effects (font (size 1.27 1.27)))
    )
    (property "Footprint" "" (at 106.68 46.355 0)
      (effects (font (size 1.27 1.27)) hide)
    )
    (property "Datasheet" "" (at 106.68 46.355 0)
      (effects (font (size 1.27 1.27)) hide)
    )
    (pin "1" (uuid 024765d8-00ba-408a-abe5-750ecbe0539f))
    (instances
      (project "usbasp_programmer"
        (path "/1d5a162f-b01d-4a7a-9227-d38d60ff93c2"
          (reference "#PWR01") (unit 1)
        )
      )
    )
  )

  (symbol (lib_id "power:+5V") (at 119.38 152.4 0) (unit 1)
    (in_bom yes) (on_board yes) (dnp no) (fields_autoplaced)
    (uuid 5e8799a4-a409-4334-9841-e6bb6926a396)
    (property "Reference" "#PWR017" (at 119.38 156.21 0)
      (effects (font (size 1.27 1.27)) hide)
    )
    (property "Value" "+5V" (at 119.38 148.59 0)
      (effects (font (size 1.27 1.27)))
    )
    (property "Footprint" "" (at 119.38 152.4 0)
      (effects (font (size 1.27 1.27)) hide)
    )
    (property "Datasheet" "" (at 119.38 152.4 0)
      (effects (font (size 1.27 1.27)) hide)
    )
    (pin "1" (uuid c420ad68-b244-438b-9096-5aae52f992bc))
    (instances
      (project "usbasp_programmer"
        (path "/1d5a162f-b01d-4a7a-9227-d38d60ff93c2"
          (reference "#PWR017") (unit 1)
        )
      )
    )
  )

  (symbol (lib_id "Connector:Conn_01x02_Pin") (at 241.3 91.44 180) (unit 1)
    (in_bom yes) (on_board yes) (dnp no) (fields_autoplaced)
    (uuid 5ecda638-0705-4af1-b959-375a797cc580)
    (property "Reference" "J4" (at 242.57 89.535 0)
      (effects (font (size 1.27 1.27)) (justify right))
    )
    (property "Value" "VTarget" (at 242.57 92.075 0)
      (effects (font (size 1.27 1.27)) (justify right))
    )
    (property "Footprint" "Connector_PinHeader_2.54mm:PinHeader_1x02_P2.54mm_Vertical" (at 241.3 91.44 0)
      (effects (font (size 1.27 1.27)) hide)
    )
    (property "Datasheet" "~" (at 241.3 91.44 0)
      (effects (font (size 1.27 1.27)) hide)
    )
    (pin "1" (uuid e2614e3a-5d1e-48c8-af6d-3ebaf9d350a2))
    (pin "2" (uuid d27b2b28-cd22-4a3b-b65d-24c215495902))
    (instances
      (project "usbasp_programmer"
        (path "/1d5a162f-b01d-4a7a-9227-d38d60ff93c2"
          (reference "J4") (unit 1)
        )
      )
    )
  )

  (symbol (lib_id "MCU_Microchip_ATmega:ATmega8-16P") (at 129.54 87.63 0) (unit 1)
    (in_bom yes) (on_board yes) (dnp no) (fields_autoplaced)
    (uuid 634b59a9-c012-48fe-b184-be4444dc73e4)
    (property "Reference" "U1" (at 134.0359 50.165 0)
      (effects (font (size 1.27 1.27)) (justify left))
    )
    (property "Value" "ATmega8-16P" (at 134.0359 52.705 0)
      (effects (font (size 1.27 1.27)) (justify left))
    )
    (property "Footprint" "Package_DIP:DIP-28_W7.62mm" (at 129.54 87.63 0)
      (effects (font (size 1.27 1.27) italic) hide)
    )
    (property "Datasheet" "http://ww1.microchip.com/downloads/en/DeviceDoc/atmel-2486-8-bit-avr-microcontroller-atmega8_l_datasheet.pdf" (at 129.54 87.63 0)
      (effects (font (size 1.27 1.27)) hide)
    )
    (pin "1" (uuid b3e14be3-fa64-47fe-b705-59383e37aa9d))
    (pin "10" (uuid 1cc99a2a-3a24-4af7-bc0a-2aa82774cc65))
    (pin "11" (uuid 278e7770-1887-4c3a-9c7e-76ae0590455c))
    (pin "12" (uuid 8ea45cb3-f248-4ebf-b97d-04483808b097))
    (pin "13" (uuid 5e238c7b-c630-469e-8e1e-f2051ddfa71b))
    (pin "14" (uuid 4950d2ae-d43a-4895-af63-5844331dada6))
    (pin "15" (uuid 7e4a7c5d-05b6-4b75-85b7-fbc92591115a))
    (pin "16" (uuid 0e53d298-0c0c-4c77-b4f9-ece707eefac0))
    (pin "17" (uuid 128612e1-8774-4f96-a08f-266e1bbef436))
    (pin "18" (uuid c28c12b8-b553-4218-a21f-d5a240cb02fc))
    (pin "19" (uuid 6633efca-ed28-4581-b7d8-2631c3efee38))
    (pin "2" (uuid 7912398a-fb65-44c7-bd7e-f55b57bfb5c9))
    (pin "20" (uuid f22e56ab-488f-40c8-b45d-c20d1f9b91ef))
    (pin "21" (uuid 112c3920-11dc-4782-9ce1-86d61e1e590e))
    (pin "22" (uuid c7a6d7cb-9981-4b35-a6ba-e07c65176ea4))
    (pin "23" (uuid 58428c40-8ae7-4f00-b10d-87baccf5822d))
    (pin "24" (uuid 91fd4d91-7e09-45ee-ad5b-a75fbeb4feea))
    (pin "25" (uuid 4b25f44f-4af9-4c88-964e-598b3f787d06))
    (pin "26" (uuid c02fc7d8-d359-42df-969e-34858ec95b0c))
    (pin "27" (uuid 43ba6fe4-d2df-4e5f-8269-9fa6cefeaa1b))
    (pin "28" (uuid c7ff7f6b-4987-4b94-8bfa-3070daf7d4a8))
    (pin "3" (uuid e84433ba-a8ac-4170-914c-4fc16cdf41d4))
    (pin "4" (uuid ea45b58c-0019-4842-be94-7521f138f5fa))
    (pin "5" (uuid 38923c07-ca3e-4a29-9d5b-1a91d42ce977))
    (pin "6" (uuid 8d35348b-9ca2-49c8-92d3-630670792ae7))
    (pin "7" (uuid 2fa61022-25d1-4495-b204-5dc3a195b9cd))
    (pin "8" (uuid 97618356-49ae-4ebf-9f88-46b78faefd00))
    (pin "9" (uuid 057fcd71-f13a-4d9a-9072-0de8afea43d7))
    (instances
      (project "usbasp_programmer"
        (path "/1d5a162f-b01d-4a7a-9227-d38d60ff93c2"
          (reference "U1") (unit 1)
        )
      )
    )
  )

  (symbol (lib_id "Diode:BZV55B3V6") (at 48.26 175.26 270) (unit 1)
    (in_bom yes) (on_board yes) (dnp no)
    (uuid 655c27d0-0c8b-486f-8644-4be63c3893ac)
    (property "Reference" "D4" (at 50.165 174.625 90)
      (effects (font (size 1.27 1.27)) (justify left))
    )
    (property "Value" "Z3v6" (at 50.165 177.165 90)
      (effects (font (size 1.27 1.27)) (justify left))
    )
    (property "Footprint" "Diode_THT:D_DO-34_SOD68_P7.62mm_Horizontal" (at 43.815 175.26 0)
      (effects (font (size 1.27 1.27)) hide)
    )
    (property "Datasheet" "https://assets.nexperia.com/documents/data-sheet/BZV55_SER.pdf" (at 48.26 175.26 0)
      (effects (font (size 1.27 1.27)) hide)
    )
    (pin "1" (uuid d88f0b4f-b8af-4e4c-8145-d551171e08ed))
    (pin "2" (uuid a98096da-50f1-4c4b-b64a-ff85b126dc3e))
    (instances
      (project "usbasp_programmer"
        (path "/1d5a162f-b01d-4a7a-9227-d38d60ff93c2"
          (reference "D4") (unit 1)
        )
      )
    )
  )

  (symbol (lib_id "Device:C") (at 133.35 161.29 0) (unit 1)
    (in_bom yes) (on_board yes) (dnp no) (fields_autoplaced)
    (uuid 69c3907f-1b5d-4310-aa34-3cd2481c03ce)
    (property "Reference" "C4" (at 137.16 160.655 0)
      (effects (font (size 1.27 1.27)) (justify left))
    )
    (property "Value" "100nF" (at 137.16 163.195 0)
      (effects (font (size 1.27 1.27)) (justify left))
    )
    (property "Footprint" "Capacitor_SMD:C_0805_2012Metric_Pad1.18x1.45mm_HandSolder" (at 134.3152 165.1 0)
      (effects (font (size 1.27 1.27)) hide)
    )
    (property "Datasheet" "~" (at 133.35 161.29 0)
      (effects (font (size 1.27 1.27)) hide)
    )
    (pin "1" (uuid edacfc9d-23bd-4584-9af7-69bcd1571527))
    (pin "2" (uuid 5a784458-97f7-4b4e-8996-106090c902be))
    (instances
      (project "usbasp_programmer"
        (path "/1d5a162f-b01d-4a7a-9227-d38d60ff93c2"
          (reference "C4") (unit 1)
        )
      )
    )
  )

  (symbol (lib_id "power:GND") (at 119.38 168.91 0) (unit 1)
    (in_bom yes) (on_board yes) (dnp no) (fields_autoplaced)
    (uuid 7a07505a-27eb-4791-ae5d-43378aeb49ba)
    (property "Reference" "#PWR019" (at 119.38 175.26 0)
      (effects (font (size 1.27 1.27)) hide)
    )
    (property "Value" "GND" (at 119.38 173.99 0)
      (effects (font (size 1.27 1.27)))
    )
    (property "Footprint" "" (at 119.38 168.91 0)
      (effects (font (size 1.27 1.27)) hide)
    )
    (property "Datasheet" "" (at 119.38 168.91 0)
      (effects (font (size 1.27 1.27)) hide)
    )
    (pin "1" (uuid f24a7b78-1e05-4f7c-a26c-14375c75491a))
    (instances
      (project "usbasp_programmer"
        (path "/1d5a162f-b01d-4a7a-9227-d38d60ff93c2"
          (reference "#PWR019") (unit 1)
        )
      )
    )
  )

  (symbol (lib_id "Device:C_Polarized") (at 119.38 161.29 0) (unit 1)
    (in_bom yes) (on_board yes) (dnp no) (fields_autoplaced)
    (uuid 7bd1bb55-8740-4f8f-a711-0869288c2039)
    (property "Reference" "C3" (at 123.19 159.766 0)
      (effects (font (size 1.27 1.27)) (justify left))
    )
    (property "Value" "4.7uF" (at 123.19 162.306 0)
      (effects (font (size 1.27 1.27)) (justify left))
    )
    (property "Footprint" "Capacitor_SMD:CP_Elec_4x5.4" (at 120.3452 165.1 0)
      (effects (font (size 1.27 1.27)) hide)
    )
    (property "Datasheet" "~" (at 119.38 161.29 0)
      (effects (font (size 1.27 1.27)) hide)
    )
    (pin "1" (uuid 4d5d7a6c-84f5-470c-b2bc-6ef58e02994b))
    (pin "2" (uuid 461074a8-d9dc-42f2-8067-eeb1a0f777b5))
    (instances
      (project "usbasp_programmer"
        (path "/1d5a162f-b01d-4a7a-9227-d38d60ff93c2"
          (reference "C3") (unit 1)
        )
      )
    )
  )

  (symbol (lib_id "power:GND") (at 29.21 190.5 0) (unit 1)
    (in_bom yes) (on_board yes) (dnp no) (fields_autoplaced)
    (uuid 7ea43a3f-b9fa-4ca8-8a79-cd010d0c9c5e)
    (property "Reference" "#PWR010" (at 29.21 196.85 0)
      (effects (font (size 1.27 1.27)) hide)
    )
    (property "Value" "GND" (at 29.21 195.58 0)
      (effects (font (size 1.27 1.27)))
    )
    (property "Footprint" "" (at 29.21 190.5 0)
      (effects (font (size 1.27 1.27)) hide)
    )
    (property "Datasheet" "" (at 29.21 190.5 0)
      (effects (font (size 1.27 1.27)) hide)
    )
    (pin "1" (uuid 58cfb8b9-d753-42f7-89d1-dc6d411a7cd4))
    (instances
      (project "usbasp_programmer"
        (path "/1d5a162f-b01d-4a7a-9227-d38d60ff93c2"
          (reference "#PWR010") (unit 1)
        )
      )
    )
  )

  (symbol (lib_id "power:+5V") (at 45.72 144.78 0) (unit 1)
    (in_bom yes) (on_board yes) (dnp no) (fields_autoplaced)
    (uuid 98d852c7-d8da-432f-b628-39f5b19192e3)
    (property "Reference" "#PWR09" (at 45.72 148.59 0)
      (effects (font (size 1.27 1.27)) hide)
    )
    (property "Value" "+5V" (at 45.72 141.605 0)
      (effects (font (size 1.27 1.27)))
    )
    (property "Footprint" "" (at 45.72 144.78 0)
      (effects (font (size 1.27 1.27)) hide)
    )
    (property "Datasheet" "" (at 45.72 144.78 0)
      (effects (font (size 1.27 1.27)) hide)
    )
    (pin "1" (uuid 1a3c92fd-8783-42b3-9d80-21ac79a8cb54))
    (instances
      (project "usbasp_programmer"
        (path "/1d5a162f-b01d-4a7a-9227-d38d60ff93c2"
          (reference "#PWR09") (unit 1)
        )
      )
    )
  )

  (symbol (lib_id "Device:C") (at 87.63 63.5 90) (unit 1)
    (in_bom yes) (on_board yes) (dnp no) (fields_autoplaced)
    (uuid 98d8dbdd-fefa-46e1-9130-25d684a4c1a5)
    (property "Reference" "C1" (at 87.63 57.15 90)
      (effects (font (size 1.27 1.27)))
    )
    (property "Value" "22pF" (at 87.63 59.69 90)
      (effects (font (size 1.27 1.27)))
    )
    (property "Footprint" "Capacitor_SMD:C_0805_2012Metric_Pad1.18x1.45mm_HandSolder" (at 91.44 62.5348 0)
      (effects (font (size 1.27 1.27)) hide)
    )
    (property "Datasheet" "~" (at 87.63 63.5 0)
      (effects (font (size 1.27 1.27)) hide)
    )
    (pin "1" (uuid 4ab7e6f5-7c4b-4be3-8c5b-80b98d1b467a))
    (pin "2" (uuid 8535c752-f3ea-4fa5-8b4f-28e88a5e501a))
    (instances
      (project "usbasp_programmer"
        (path "/1d5a162f-b01d-4a7a-9227-d38d60ff93c2"
          (reference "C1") (unit 1)
        )
      )
    )
  )

  (symbol (lib_id "power:GND") (at 81.28 64.77 0) (unit 1)
    (in_bom yes) (on_board yes) (dnp no) (fields_autoplaced)
    (uuid 9fe93312-e92a-44c6-a57e-1dda3a6e0e6c)
    (property "Reference" "#PWR04" (at 81.28 71.12 0)
      (effects (font (size 1.27 1.27)) hide)
    )
    (property "Value" "GND" (at 81.28 69.215 0)
      (effects (font (size 1.27 1.27)))
    )
    (property "Footprint" "" (at 81.28 64.77 0)
      (effects (font (size 1.27 1.27)) hide)
    )
    (property "Datasheet" "" (at 81.28 64.77 0)
      (effects (font (size 1.27 1.27)) hide)
    )
    (pin "1" (uuid ab6b2d9f-60a8-4ea3-9027-040e3ff49ffe))
    (instances
      (project "usbasp_programmer"
        (path "/1d5a162f-b01d-4a7a-9227-d38d60ff93c2"
          (reference "#PWR04") (unit 1)
        )
      )
    )
  )

  (symbol (lib_id "Connector:Conn_01x02_Pin") (at 210.82 87.63 180) (unit 1)
    (in_bom yes) (on_board yes) (dnp no) (fields_autoplaced)
    (uuid a227ac90-615c-4449-95e4-0e86232fd1b4)
    (property "Reference" "J3" (at 212.09 85.725 0)
      (effects (font (size 1.27 1.27)) (justify right))
    )
    (property "Value" "Selfprogramming" (at 212.09 88.265 0)
      (effects (font (size 1.27 1.27)) (justify right))
    )
    (property "Footprint" "Connector_PinHeader_2.54mm:PinHeader_1x02_P2.54mm_Vertical" (at 210.82 87.63 0)
      (effects (font (size 1.27 1.27)) hide)
    )
    (property "Datasheet" "~" (at 210.82 87.63 0)
      (effects (font (size 1.27 1.27)) hide)
    )
    (pin "1" (uuid d53e065f-0799-4196-ae5e-9465b0c65049))
    (pin "2" (uuid cfde3901-c725-44fe-809a-d0137f3e934b))
    (instances
      (project "usbasp_programmer"
        (path "/1d5a162f-b01d-4a7a-9227-d38d60ff93c2"
          (reference "J3") (unit 1)
        )
      )
    )
  )

  (symbol (lib_id "Device:R") (at 193.04 106.68 270) (mirror x) (unit 1)
    (in_bom yes) (on_board yes) (dnp no)
    (uuid ab940bc5-b71b-4ded-bff2-3c154810f49f)
    (property "Reference" "R4" (at 190.5 104.14 90)
      (effects (font (size 1.27 1.27)))
    )
    (property "Value" "270" (at 195.58 104.14 90)
      (effects (font (size 1.27 1.27)))
    )
    (property "Footprint" "Resistor_SMD:R_0805_2012Metric_Pad1.20x1.40mm_HandSolder" (at 193.04 108.458 90)
      (effects (font (size 1.27 1.27)) hide)
    )
    (property "Datasheet" "~" (at 193.04 106.68 0)
      (effects (font (size 1.27 1.27)) hide)
    )
    (pin "1" (uuid 6864d6a4-330a-4bc2-a7af-39dca47dd0cf))
    (pin "2" (uuid 6f9f0b1f-b8fd-47f4-9f11-e5610a15fcf9))
    (instances
      (project "usbasp_programmer"
        (path "/1d5a162f-b01d-4a7a-9227-d38d60ff93c2"
          (reference "R4") (unit 1)
        )
      )
    )
  )

  (symbol (lib_id "Device:R") (at 231.14 104.14 90) (mirror x) (unit 1)
    (in_bom yes) (on_board yes) (dnp no)
    (uuid abd6ac9a-c72e-4e2e-b69f-3cf93b43b04b)
    (property "Reference" "R2" (at 233.68 106.68 90)
      (effects (font (size 1.27 1.27)))
    )
    (property "Value" "270" (at 228.6 106.68 90)
      (effects (font (size 1.27 1.27)))
    )
    (property "Footprint" "Resistor_SMD:R_0805_2012Metric_Pad1.20x1.40mm_HandSolder" (at 231.14 102.362 90)
      (effects (font (size 1.27 1.27)) hide)
    )
    (property "Datasheet" "~" (at 231.14 104.14 0)
      (effects (font (size 1.27 1.27)) hide)
    )
    (pin "1" (uuid 3ef2ec7b-e4e3-4848-b413-54e0c683ad1d))
    (pin "2" (uuid 64b47da6-b8e1-444c-b28c-12e586ec27d9))
    (instances
      (project "usbasp_programmer"
        (path "/1d5a162f-b01d-4a7a-9227-d38d60ff93c2"
          (reference "R2") (unit 1)
        )
      )
    )
  )

  (symbol (lib_id "Device:LED") (at 181.61 60.96 270) (unit 1)
    (in_bom yes) (on_board yes) (dnp no) (fields_autoplaced)
    (uuid b228a593-cef0-467a-a6bc-c9e928b866a7)
    (property "Reference" "D2" (at 184.15 58.7375 90)
      (effects (font (size 1.27 1.27)) (justify left))
    )
    (property "Value" "LED_RED" (at 184.15 61.2775 90)
      (effects (font (size 1.27 1.27)) (justify left))
    )
    (property "Footprint" "LED_SMD:LED_0805_2012Metric_Pad1.15x1.40mm_HandSolder" (at 181.61 60.96 0)
      (effects (font (size 1.27 1.27)) hide)
    )
    (property "Datasheet" "~" (at 181.61 60.96 0)
      (effects (font (size 1.27 1.27)) hide)
    )
    (pin "1" (uuid 6d6a45bc-7cbe-4a98-a5eb-4b57b0c60424))
    (pin "2" (uuid 564f8c0c-836b-4a9b-85ac-9c83d92b2261))
    (instances
      (project "usbasp_programmer"
        (path "/1d5a162f-b01d-4a7a-9227-d38d60ff93c2"
          (reference "D2") (unit 1)
        )
      )
    )
  )

  (symbol (lib_id "power:GND") (at 21.59 190.5 0) (unit 1)
    (in_bom yes) (on_board yes) (dnp no) (fields_autoplaced)
    (uuid b4af7821-7559-4e6e-8be8-0628d0c77699)
    (property "Reference" "#PWR011" (at 21.59 196.85 0)
      (effects (font (size 1.27 1.27)) hide)
    )
    (property "Value" "GND" (at 21.59 195.58 0)
      (effects (font (size 1.27 1.27)))
    )
    (property "Footprint" "" (at 21.59 190.5 0)
      (effects (font (size 1.27 1.27)) hide)
    )
    (property "Datasheet" "" (at 21.59 190.5 0)
      (effects (font (size 1.27 1.27)) hide)
    )
    (pin "1" (uuid 5e1abdf8-e184-44c2-89ad-07877df94ba7))
    (instances
      (project "usbasp_programmer"
        (path "/1d5a162f-b01d-4a7a-9227-d38d60ff93c2"
          (reference "#PWR011") (unit 1)
        )
      )
    )
  )

  (symbol (lib_id "Device:R") (at 106.68 52.705 0) (unit 1)
    (in_bom yes) (on_board yes) (dnp no) (fields_autoplaced)
    (uuid b5ee2278-dcd7-4e5b-9417-0325447ebb13)
    (property "Reference" "R1" (at 108.585 52.07 0)
      (effects (font (size 1.27 1.27)) (justify left))
    )
    (property "Value" "10k" (at 108.585 54.61 0)
      (effects (font (size 1.27 1.27)) (justify left))
    )
    (property "Footprint" "Resistor_SMD:R_0805_2012Metric_Pad1.20x1.40mm_HandSolder" (at 104.902 52.705 90)
      (effects (font (size 1.27 1.27)) hide)
    )
    (property "Datasheet" "~" (at 106.68 52.705 0)
      (effects (font (size 1.27 1.27)) hide)
    )
    (pin "1" (uuid c06f06b2-2b74-4410-b61f-b35d42b1310c))
    (pin "2" (uuid e245bb11-2e64-41ab-9807-d86ff4fc52dd))
    (instances
      (project "usbasp_programmer"
        (path "/1d5a162f-b01d-4a7a-9227-d38d60ff93c2"
          (reference "R1") (unit 1)
        )
      )
    )
  )

  (symbol (lib_id "power:GND") (at 133.35 168.91 0) (unit 1)
    (in_bom yes) (on_board yes) (dnp no) (fields_autoplaced)
    (uuid bcc6d6a7-7132-4205-bfca-d27664ca946b)
    (property "Reference" "#PWR020" (at 133.35 175.26 0)
      (effects (font (size 1.27 1.27)) hide)
    )
    (property "Value" "GND" (at 133.35 173.99 0)
      (effects (font (size 1.27 1.27)))
    )
    (property "Footprint" "" (at 133.35 168.91 0)
      (effects (font (size 1.27 1.27)) hide)
    )
    (property "Datasheet" "" (at 133.35 168.91 0)
      (effects (font (size 1.27 1.27)) hide)
    )
    (pin "1" (uuid 5b4ea082-f6f9-4088-91cd-cc40bff729c6))
    (instances
      (project "usbasp_programmer"
        (path "/1d5a162f-b01d-4a7a-9227-d38d60ff93c2"
          (reference "#PWR020") (unit 1)
        )
      )
    )
  )

  (symbol (lib_id "power:+5V") (at 236.22 85.09 0) (unit 1)
    (in_bom yes) (on_board yes) (dnp no) (fields_autoplaced)
    (uuid c2107093-3c86-43ca-8206-31c0a0d1df89)
    (property "Reference" "#PWR016" (at 236.22 88.9 0)
      (effects (font (size 1.27 1.27)) hide)
    )
    (property "Value" "+5V" (at 236.22 81.28 0)
      (effects (font (size 1.27 1.27)))
    )
    (property "Footprint" "" (at 236.22 85.09 0)
      (effects (font (size 1.27 1.27)) hide)
    )
    (property "Datasheet" "" (at 236.22 85.09 0)
      (effects (font (size 1.27 1.27)) hide)
    )
    (pin "1" (uuid 0c7e05f8-3861-4239-a4e0-80121e85035b))
    (instances
      (project "usbasp_programmer"
        (path "/1d5a162f-b01d-4a7a-9227-d38d60ff93c2"
          (reference "#PWR016") (unit 1)
        )
      )
    )
  )

  (symbol (lib_id "power:GND") (at 57.15 182.88 0) (unit 1)
    (in_bom yes) (on_board yes) (dnp no) (fields_autoplaced)
    (uuid cca22bc0-8b55-4c40-a356-3db1bffc7d0d)
    (property "Reference" "#PWR014" (at 57.15 189.23 0)
      (effects (font (size 1.27 1.27)) hide)
    )
    (property "Value" "GND" (at 57.15 187.96 0)
      (effects (font (size 1.27 1.27)))
    )
    (property "Footprint" "" (at 57.15 182.88 0)
      (effects (font (size 1.27 1.27)) hide)
    )
    (property "Datasheet" "" (at 57.15 182.88 0)
      (effects (font (size 1.27 1.27)) hide)
    )
    (pin "1" (uuid 16b0ee66-f220-468a-8efa-b80b895ca2ae))
    (instances
      (project "usbasp_programmer"
        (path "/1d5a162f-b01d-4a7a-9227-d38d60ff93c2"
          (reference "#PWR014") (unit 1)
        )
      )
    )
  )

  (symbol (lib_id "power:GND") (at 48.26 182.88 0) (unit 1)
    (in_bom yes) (on_board yes) (dnp no) (fields_autoplaced)
    (uuid d9867065-40c7-4d1f-9d74-58731b8350c7)
    (property "Reference" "#PWR013" (at 48.26 189.23 0)
      (effects (font (size 1.27 1.27)) hide)
    )
    (property "Value" "GND" (at 48.26 187.96 0)
      (effects (font (size 1.27 1.27)))
    )
    (property "Footprint" "" (at 48.26 182.88 0)
      (effects (font (size 1.27 1.27)) hide)
    )
    (property "Datasheet" "" (at 48.26 182.88 0)
      (effects (font (size 1.27 1.27)) hide)
    )
    (pin "1" (uuid 6ab76db4-72e6-45a2-a254-db8809e4cc5e))
    (instances
      (project "usbasp_programmer"
        (path "/1d5a162f-b01d-4a7a-9227-d38d60ff93c2"
          (reference "#PWR013") (unit 1)
        )
      )
    )
  )

  (symbol (lib_id "Device:R") (at 193.04 109.22 90) (mirror x) (unit 1)
    (in_bom yes) (on_board yes) (dnp no)
    (uuid de2e1be1-2190-43cf-affa-e9fb3be56879)
    (property "Reference" "R5" (at 191.77 111.76 90)
      (effects (font (size 1.27 1.27)) (justify left))
    )
    (property "Value" "270" (at 198.12 111.76 90)
      (effects (font (size 1.27 1.27)) (justify left))
    )
    (property "Footprint" "Resistor_SMD:R_0805_2012Metric_Pad1.20x1.40mm_HandSolder" (at 193.04 107.442 90)
      (effects (font (size 1.27 1.27)) hide)
    )
    (property "Datasheet" "~" (at 193.04 109.22 0)
      (effects (font (size 1.27 1.27)) hide)
    )
    (pin "1" (uuid 54a01970-3ca2-4f04-9ca6-08917de00b4a))
    (pin "2" (uuid ff396f33-9fdc-4f4d-8755-2335f444a121))
    (instances
      (project "usbasp_programmer"
        (path "/1d5a162f-b01d-4a7a-9227-d38d60ff93c2"
          (reference "R5") (unit 1)
        )
      )
    )
  )

  (symbol (lib_id "Device:R") (at 163.83 71.12 180) (unit 1)
    (in_bom yes) (on_board yes) (dnp no) (fields_autoplaced)
    (uuid e1856246-d4a6-4c18-a0a3-55fa0b5acbfd)
    (property "Reference" "R6" (at 166.37 70.485 0)
      (effects (font (size 1.27 1.27)) (justify right))
    )
    (property "Value" "1k" (at 166.37 73.025 0)
      (effects (font (size 1.27 1.27)) (justify right))
    )
    (property "Footprint" "Resistor_SMD:R_0805_2012Metric_Pad1.20x1.40mm_HandSolder" (at 165.608 71.12 90)
      (effects (font (size 1.27 1.27)) hide)
    )
    (property "Datasheet" "~" (at 163.83 71.12 0)
      (effects (font (size 1.27 1.27)) hide)
    )
    (pin "1" (uuid 5519678c-7be7-47cc-9bd8-d84d2ca2fe9d))
    (pin "2" (uuid e504bd9a-9f70-4a68-9984-21c101728658))
    (instances
      (project "usbasp_programmer"
        (path "/1d5a162f-b01d-4a7a-9227-d38d60ff93c2"
          (reference "R6") (unit 1)
        )
      )
    )
  )

  (symbol (lib_id "Device:LED") (at 163.83 60.96 270) (unit 1)
    (in_bom yes) (on_board yes) (dnp no)
    (uuid e3fc5a21-7865-470f-84bd-7390d431f9c6)
    (property "Reference" "D1" (at 167.005 58.7375 90)
      (effects (font (size 1.27 1.27)) (justify left))
    )
    (property "Value" "LED_GREEN" (at 167.005 61.2775 90)
      (effects (font (size 1.27 1.27)) (justify left))
    )
    (property "Footprint" "LED_SMD:LED_0805_2012Metric_Pad1.15x1.40mm_HandSolder" (at 163.83 60.96 0)
      (effects (font (size 1.27 1.27)) hide)
    )
    (property "Datasheet" "~" (at 163.83 60.96 0)
      (effects (font (size 1.27 1.27)) hide)
    )
    (pin "1" (uuid 295a0c98-e0dd-4e0f-a692-bb31c08ce6c2))
    (pin "2" (uuid d203dfc1-7eea-47d0-839e-215b081478d6))
    (instances
      (project "usbasp_programmer"
        (path "/1d5a162f-b01d-4a7a-9227-d38d60ff93c2"
          (reference "D1") (unit 1)
        )
      )
    )
  )

  (symbol (lib_id "power:+5V") (at 133.35 152.4 0) (unit 1)
    (in_bom yes) (on_board yes) (dnp no) (fields_autoplaced)
    (uuid e5a02f64-53c4-4281-8cb6-7a1feb9ca493)
    (property "Reference" "#PWR018" (at 133.35 156.21 0)
      (effects (font (size 1.27 1.27)) hide)
    )
    (property "Value" "+5V" (at 133.35 148.59 0)
      (effects (font (size 1.27 1.27)))
    )
    (property "Footprint" "" (at 133.35 152.4 0)
      (effects (font (size 1.27 1.27)) hide)
    )
    (property "Datasheet" "" (at 133.35 152.4 0)
      (effects (font (size 1.27 1.27)) hide)
    )
    (pin "1" (uuid e65d2608-e4bd-48c6-b1a2-073e2aac25f3))
    (instances
      (project "usbasp_programmer"
        (path "/1d5a162f-b01d-4a7a-9227-d38d60ff93c2"
          (reference "#PWR018") (unit 1)
        )
      )
    )
  )

  (symbol (lib_id "Device:R") (at 68.58 162.56 90) (unit 1)
    (in_bom yes) (on_board yes) (dnp no) (fields_autoplaced)
    (uuid f0e5deee-c32a-4a2f-aad0-9940d178116f)
    (property "Reference" "R8" (at 68.58 158.115 90)
      (effects (font (size 1.27 1.27)))
    )
    (property "Value" "68" (at 68.58 160.655 90)
      (effects (font (size 1.27 1.27)))
    )
    (property "Footprint" "Resistor_SMD:R_0805_2012Metric_Pad1.20x1.40mm_HandSolder" (at 68.58 164.338 90)
      (effects (font (size 1.27 1.27)) hide)
    )
    (property "Datasheet" "~" (at 68.58 162.56 0)
      (effects (font (size 1.27 1.27)) hide)
    )
    (pin "1" (uuid dd6dfbc0-d363-44a9-91f8-b1c6e474bb7a))
    (pin "2" (uuid 25bde8a3-bd91-4b60-a66d-91ed970efab8))
    (instances
      (project "usbasp_programmer"
        (path "/1d5a162f-b01d-4a7a-9227-d38d60ff93c2"
          (reference "R8") (unit 1)
        )
      )
    )
  )

  (sheet_instances
    (path "/" (page "1"))
  )
)
